test_run_dir/Timer_Tests/TimerHarness.vcd
$version Generated by VerilatedVcd $end
$date Sat Mar 26 16:18:42 2022
 $end
$timescale   1ns $end

 $scope module TOP $end
  $var wire  1 H clock $end
  $var wire  1 T io_intr_cmp $end
  $var wire  4 N io_req_bits_activeByteLane [3:0] $end
  $var wire 32 L io_req_bits_addrRequest [31:0] $end
  $var wire 32 M io_req_bits_dataRequest [31:0] $end
  $var wire  1 O io_req_bits_isWrite $end
  $var wire  1 J io_req_ready $end
  $var wire  1 K io_req_valid $end
  $var wire 32 R io_rsp_bits_dataResponse [31:0] $end
  $var wire  1 S io_rsp_bits_error $end
  $var wire  1 P io_rsp_ready $end
  $var wire  1 Q io_rsp_valid $end
  $var wire  1 I reset $end
  $scope module TimerHarness $end
   $var wire  1 H clock $end
   $var wire  4 ( deviceAdapter_io_reqOut_bits_activeByteLane [3:0] $end
   $var wire 32 & deviceAdapter_io_reqOut_bits_addrRequest [31:0] $end
   $var wire 32 ' deviceAdapter_io_reqOut_bits_dataRequest [31:0] $end
   $var wire  1 % deviceAdapter_io_reqOut_bits_isWrite $end
   $var wire  1 2 deviceAdapter_io_reqOut_valid $end
   $var wire 32 ) deviceAdapter_io_rspIn_bits_dataResponse [31:0] $end
   $var wire  1 3 deviceAdapter_io_rspIn_bits_error $end
   $var wire  1 * deviceAdapter_io_rspIn_valid $end
   $var wire 32 & deviceAdapter_io_wbMasterReceiver_bits_adr [31:0] $end
   $var wire  1 $ deviceAdapter_io_wbMasterReceiver_bits_cyc $end
   $var wire 32 ' deviceAdapter_io_wbMasterReceiver_bits_dat [31:0] $end
   $var wire  4 ( deviceAdapter_io_wbMasterReceiver_bits_sel [3:0] $end
   $var wire  1 # deviceAdapter_io_wbMasterReceiver_bits_stb $end
   $var wire  1 % deviceAdapter_io_wbMasterReceiver_bits_we $end
   $var wire  1 U deviceAdapter_io_wbMasterReceiver_ready $end
   $var wire  1 # deviceAdapter_io_wbMasterReceiver_valid $end
   $var wire  1 0 deviceAdapter_io_wbSlaveTransmitter_bits_ack $end
   $var wire 32 ) deviceAdapter_io_wbSlaveTransmitter_bits_dat [31:0] $end
   $var wire  1 1 deviceAdapter_io_wbSlaveTransmitter_bits_err $end
   $var wire  1 U deviceAdapter_io_wbSlaveTransmitter_ready $end
   $var wire  1 H hostAdapter_clock $end
   $var wire  4 N hostAdapter_io_reqIn_bits_activeByteLane [3:0] $end
   $var wire 32 L hostAdapter_io_reqIn_bits_addrRequest [31:0] $end
   $var wire 32 M hostAdapter_io_reqIn_bits_dataRequest [31:0] $end
   $var wire  1 O hostAdapter_io_reqIn_bits_isWrite $end
   $var wire  1 4 hostAdapter_io_reqIn_ready $end
   $var wire  1 K hostAdapter_io_reqIn_valid $end
   $var wire 32 6 hostAdapter_io_rspOut_bits_dataResponse [31:0] $end
   $var wire  1 7 hostAdapter_io_rspOut_bits_error $end
   $var wire  1 5 hostAdapter_io_rspOut_valid $end
   $var wire 32 & hostAdapter_io_wbMasterTransmitter_bits_adr [31:0] $end
   $var wire  1 $ hostAdapter_io_wbMasterTransmitter_bits_cyc $end
   $var wire 32 ' hostAdapter_io_wbMasterTransmitter_bits_dat [31:0] $end
   $var wire  4 ( hostAdapter_io_wbMasterTransmitter_bits_sel [3:0] $end
   $var wire  1 # hostAdapter_io_wbMasterTransmitter_bits_stb $end
   $var wire  1 % hostAdapter_io_wbMasterTransmitter_bits_we $end
   $var wire  1 U hostAdapter_io_wbMasterTransmitter_ready $end
   $var wire  1 # hostAdapter_io_wbMasterTransmitter_valid $end
   $var wire  1 0 hostAdapter_io_wbSlaveReceiver_bits_ack $end
   $var wire 32 ) hostAdapter_io_wbSlaveReceiver_bits_dat [31:0] $end
   $var wire  1 1 hostAdapter_io_wbSlaveReceiver_bits_err $end
   $var wire  1 U hostAdapter_io_wbSlaveReceiver_ready $end
   $var wire  1 I hostAdapter_reset $end
   $var wire  1 T io_intr_cmp $end
   $var wire  4 N io_req_bits_activeByteLane [3:0] $end
   $var wire 32 L io_req_bits_addrRequest [31:0] $end
   $var wire 32 M io_req_bits_dataRequest [31:0] $end
   $var wire  1 O io_req_bits_isWrite $end
   $var wire  1 J io_req_ready $end
   $var wire  1 K io_req_valid $end
   $var wire 32 R io_rsp_bits_dataResponse [31:0] $end
   $var wire  1 S io_rsp_bits_error $end
   $var wire  1 P io_rsp_ready $end
   $var wire  1 Q io_rsp_valid $end
   $var wire  1 I reset $end
   $var wire  1 H timer_clock $end
   $var wire  4 ( timer_io_req_bits_activeByteLane [3:0] $end
   $var wire 32 & timer_io_req_bits_addrRequest [31:0] $end
   $var wire 32 ' timer_io_req_bits_dataRequest [31:0] $end
   $var wire  1 % timer_io_req_bits_isWrite $end
   $var wire  1 2 timer_io_req_valid $end
   $var wire 32 ) timer_io_rsp_bits_dataResponse [31:0] $end
   $var wire  1 3 timer_io_rsp_bits_error $end
   $var wire  1 * timer_io_rsp_valid $end
   $var wire  1 I timer_reset $end
   $scope module deviceAdapter $end
    $var wire  4 ( io_reqOut_bits_activeByteLane [3:0] $end
    $var wire 32 & io_reqOut_bits_addrRequest [31:0] $end
    $var wire 32 ' io_reqOut_bits_dataRequest [31:0] $end
    $var wire  1 % io_reqOut_bits_isWrite $end
    $var wire  1 2 io_reqOut_valid $end
    $var wire 32 ) io_rspIn_bits_dataResponse [31:0] $end
    $var wire  1 3 io_rspIn_bits_error $end
    $var wire  1 * io_rspIn_valid $end
    $var wire 32 & io_wbMasterReceiver_bits_adr [31:0] $end
    $var wire  1 $ io_wbMasterReceiver_bits_cyc $end
    $var wire 32 ' io_wbMasterReceiver_bits_dat [31:0] $end
    $var wire  4 ( io_wbMasterReceiver_bits_sel [3:0] $end
    $var wire  1 # io_wbMasterReceiver_bits_stb $end
    $var wire  1 % io_wbMasterReceiver_bits_we $end
    $var wire  1 U io_wbMasterReceiver_ready $end
    $var wire  1 # io_wbMasterReceiver_valid $end
    $var wire  1 0 io_wbSlaveTransmitter_bits_ack $end
    $var wire 32 ) io_wbSlaveTransmitter_bits_dat [31:0] $end
    $var wire  1 1 io_wbSlaveTransmitter_bits_err $end
    $var wire  1 U io_wbSlaveTransmitter_ready $end
   $upscope $end
   $scope module hostAdapter $end
    $var wire 32 = adrReg [31:0] $end
    $var wire  1 H clock $end
    $var wire  1 : cycReg $end
    $var wire 32 < datReg [31:0] $end
    $var wire 32 6 dataReg [31:0] $end
    $var wire  1 7 errReg $end
    $var wire  4 N io_reqIn_bits_activeByteLane [3:0] $end
    $var wire 32 L io_reqIn_bits_addrRequest [31:0] $end
    $var wire 32 M io_reqIn_bits_dataRequest [31:0] $end
    $var wire  1 O io_reqIn_bits_isWrite $end
    $var wire  1 4 io_reqIn_ready $end
    $var wire  1 K io_reqIn_valid $end
    $var wire 32 6 io_rspOut_bits_dataResponse [31:0] $end
    $var wire  1 7 io_rspOut_bits_error $end
    $var wire  1 5 io_rspOut_valid $end
    $var wire 32 & io_wbMasterTransmitter_bits_adr [31:0] $end
    $var wire  1 $ io_wbMasterTransmitter_bits_cyc $end
    $var wire 32 ' io_wbMasterTransmitter_bits_dat [31:0] $end
    $var wire  4 ( io_wbMasterTransmitter_bits_sel [3:0] $end
    $var wire  1 # io_wbMasterTransmitter_bits_stb $end
    $var wire  1 % io_wbMasterTransmitter_bits_we $end
    $var wire  1 U io_wbMasterTransmitter_ready $end
    $var wire  1 # io_wbMasterTransmitter_valid $end
    $var wire  1 0 io_wbSlaveReceiver_bits_ack $end
    $var wire 32 ) io_wbSlaveReceiver_bits_dat [31:0] $end
    $var wire  1 1 io_wbSlaveReceiver_bits_err $end
    $var wire  1 U io_wbSlaveReceiver_ready $end
    $var wire  1 4 readyReg $end
    $var wire  1 I reset $end
    $var wire  1 5 respReg $end
    $var wire  4 > selReg [3:0] $end
    $var wire  1 8 startWBTransaction $end
    $var wire  1 ? stateReg $end
    $var wire  1 9 stbReg $end
    $var wire  1 ; weReg $end
   $upscope $end
   $scope module timer $end
    $var wire 32 A CompareReg [31:0] $end
    $var wire 32 @ ControlReg [31:0] $end
    $var wire  1 / addr_miss $end
    $var wire  1 H clock $end
    $var wire  4 ( io_req_bits_activeByteLane [3:0] $end
    $var wire 32 & io_req_bits_addrRequest [31:0] $end
    $var wire 32 ' io_req_bits_dataRequest [31:0] $end
    $var wire  1 % io_req_bits_isWrite $end
    $var wire  1 2 io_req_valid $end
    $var wire 32 ) io_rsp_bits_dataResponse [31:0] $end
    $var wire 32 C io_rsp_bits_dataResponse_REG_1 [31:0] $end
    $var wire 32 D io_rsp_bits_dataResponse_REG_2 [31:0] $end
    $var wire 32 C io_rsp_bits_dataResponse_REG_3 [31:0] $end
    $var wire 32 E io_rsp_bits_dataResponse_REG_4 [31:0] $end
    $var wire 32 F io_rsp_bits_dataResponse_REG_5 [31:0] $end
    $var wire  1 3 io_rsp_bits_error $end
    $var wire  1 B io_rsp_bits_error_REG $end
    $var wire  1 G io_rsp_bits_error_REG_1 $end
    $var wire  1 * io_rsp_valid $end
    $var wire  1 B io_rsp_valid_REG $end
    $var wire  1 B io_rsp_valid_REG_1 $end
    $var wire  1 B io_rsp_valid_REG_2 $end
    $var wire  1 B io_rsp_valid_REG_3 $end
    $var wire  1 B io_rsp_valid_REG_4 $end
    $var wire  8 + maskedData_0 [7:0] $end
    $var wire  8 , maskedData_1 [7:0] $end
    $var wire  8 - maskedData_2 [7:0] $end
    $var wire  8 . maskedData_3 [7:0] $end
    $var wire  1 I reset $end
   $upscope $end
  $upscope $end
 $upscope $end
$enddefinitions $end


#0
0#
0$
0%
b00000000000000000000000000000000 &
b00000000000000000000000000000000 '
b0000 (
b00000000000000000000000000000000 )
0*
b00000000 +
b00000000 ,
b00000000 -
b00000000 .
0/
00
01
02
03
04
05
b00000000000000000000000000000000 6
07
08
09
0:
0;
b00000000000000000000000000000000 <
b00000000000000000000000000000000 =
b0000 >
0?
b00000000000000000000000000000000 @
b00000000000000000000000000000000 A
0B
b00000000000000000000000000000000 C
b00000000000000000000000000000000 D
b00000000000000000000000000000000 E
b00000000000000000000000000000000 F
0G
0H
1I
0J
0K
b00000000000000000000000000000000 L
b00000000000000000000000000000000 M
b0000 N
0O
0P
0Q
b00000000000000000000000000000000 R
0S
0T
1U
#1
14
1H
1J
#2
0H
0I
1K
b00000000000000000000001010010011 M
b1111 N
#3
1#
1$
b1111 (
b11111111 +
b11111111 ,
b11111111 -
b11111111 .
12
04
18
19
1:
b1111 >
1H
0J
#4
0H
0K
#5
1*
10
1B
1H
#6
0H
#7
0#
0$
b0000 (
b00000000 +
b00000000 ,
b00000000 -
b00000000 .
00
02
15
08
1?
1H
1Q
#8
0H
#9
0*
14
05
0?
0B
1H
1J
0Q
