test_run_dir/Timer_Tests/TimerHarness.vcd
$date
2022-03-26T14:04+0000
$end
$version
0.2
$end
$comment

$end
$timescale 1ns  $end
$scope module TimerHarness $end
 $var wire 1 2 io_intr_cmp $end
 $var wire 1 > timer $end
 $var wire 32 E io_rsp_bits_dataResponse $end
 $var wire 1 i io_rsp_bits_error $end
 $var wire 1 q io_rsp_valid $end
 $var wire 1 r io_req_valid $end
 $var wire 1 ". clock $end
 $var wire 1 ": deviceAdapter $end
 $var wire 32 "; io_req_bits_addrRequest $end
 $var wire 1 "O io_rsp_ready $end
 $var wire 1 "R io_req_ready $end
 $var wire 1 "c hostAdapter $end
 $var wire 1 "d reset $end
 $var wire 4 "e io_req_bits_activeByteLane $end
 $var wire 1 "f io_req_bits_isWrite $end
 $var wire 32 "j io_req_bits_dataRequest $end
 $var wire 1 "m io_intr_ovf $end
  $scope module hostAdapter $end
   $var wire 32 ! _GEN_13 $end
   $var wire 1 ( _GEN_28 $end
   $var wire 4 * io_reqIn_bits_activeByteLane $end
   $var wire 1 , _GEN_5 $end
   $var wire 32 0 io_reqIn_bits_dataRequest $end
   $var wire 1 1 clock $end
   $var wire 1 3 io_wbMasterTransmitter_bits_stb $end
   $var wire 1 4 io_wbMasterTransmitter_valid $end
   $var wire 1 5 io_rspOut_valid $end
   $var wire 1 6 startWBTransaction $end
   $var wire 1 F _GEN_4 $end
   $var wire 1 G _GEN_27 $end
   $var wire 32 H io_wbMasterTransmitter_bits_dat $end
   $var wire 1 I io_reqIn_bits_isWrite $end
   $var wire 1 L _GEN_33 $end
   $var wire 1 P errReg $end
   $var wire 32 R _GEN_7 $end
   $var wire 1 V _stateReg_T $end
   $var wire 1 W io_rspOut_bits_error $end
   $var wire 32 X io_rspOut_bits_dataResponse $end
   $var wire 4 Z _GEN_15 $end
   $var wire 1 b _GEN_24 $end
   $var wire 1 f cycReg $end
   $var wire 1 h _GEN_1 $end
   $var wire 4 j io_wbMasterTransmitter_bits_sel $end
   $var wire 1 l _GEN_30 $end
   $var wire 1 m _GEN_12 $end
   $var wire 1 s io_wbMasterTransmitter_bits_cyc $end
   $var wire 1 x stbReg $end
   $var wire 1 z stateReg $end
   $var wire 1 } io_reqIn_ready $end
   $var wire 1 "# _GEN_9 $end
   $var wire 1 "$ _GEN_23 $end
   $var wire 1 "% weReg $end
   $var wire 4 "& selReg $end
   $var wire 1 "2 _GEN_11 $end
   $var wire 1 "3 reset $end
   $var wire 1 "4 _GEN_3 $end
   $var wire 32 "6 _GEN_26 $end
   $var wire 1 "7 _GEN_32 $end
   $var wire 1 "9 io_wbMasterTransmitter_ready $end
   $var wire 1 "< _GEN_29 $end
   $var wire 32 "@ _GEN_14 $end
   $var wire 32 "A _GEN_6 $end
   $var wire 32 "D datReg $end
   $var wire 32 "E io_wbSlaveReceiver_bits_dat $end
   $var wire 1 "L _GEN_0 $end
   $var wire 32 "M io_reqIn_bits_addrRequest $end
   $var wire 1 "Q readyReg $end
   $var wire 1 "X io_wbSlaveReceiver_bits_err $end
   $var wire 1 "Z respReg $end
   $var wire 32 "[ io_wbMasterTransmitter_bits_adr $end
   $var wire 1 "^ io_wbMasterTransmitter_bits_we $end
   $var wire 32 "` adrReg $end
   $var wire 4 "a _GEN_8 $end
   $var wire 32 "h _GEN_22 $end
   $var wire 1 "i io_wbSlaveReceiver_bits_ack $end
   $var wire 1 "k _GEN_10 $end
   $var wire 1 "l _GEN_2 $end
   $var wire 1 "p _GEN_25 $end
   $var wire 1 "r io_wbSlaveReceiver_ready $end
   $var wire 1 "s _GEN_31 $end
   $var wire 1 "t io_reqIn_valid $end
   $var wire 32 "u dataReg $end
  $upscope $end
  $scope module deviceAdapter $end
   $var wire 1 & io_reqOut_valid $end
   $var wire 32 ' io_reqOut_bits_dataRequest $end
   $var wire 1 + io_wbMasterReceiver_bits_we $end
   $var wire 32 - io_wbSlaveTransmitter_bits_dat $end
   $var wire 1 8 io_rspIn_bits_error $end
   $var wire 1 9 io_wbMasterReceiver_bits_stb $end
   $var wire 1 ; io_wbSlaveTransmitter_ready $end
   $var wire 1 < io_wbSlaveTransmitter_bits_err $end
   $var wire 32 J io_wbMasterReceiver_bits_dat $end
   $var wire 1 Y _GEN_5 $end
   $var wire 1 [ io_wbMasterReceiver_valid $end
   $var wire 4 a io_wbMasterReceiver_bits_sel $end
   $var wire 1 c io_wbSlaveTransmitter_bits_ack $end
   $var wire 1 o io_wbMasterReceiver_bits_cyc $end
   $var wire 1 y _GEN_19 $end
   $var wire 1 "+ io_wbMasterReceiver_ready $end
   $var wire 4 ", io_reqOut_bits_activeByteLane $end
   $var wire 1 "1 io_reqOut_bits_isWrite $end
   $var wire 32 "8 io_rspIn_bits_dataResponse $end
   $var wire 1 "= _GEN_18 $end
   $var wire 1 "J io_rspIn_valid $end
   $var wire 32 "N io_reqOut_bits_addrRequest $end
   $var wire 1 "U _T $end
   $var wire 32 "W io_wbMasterReceiver_bits_adr $end
  $upscope $end
  $scope module timer $end
   $var wire 33 " _PreCountReg_T $end
   $var wire 32 # _GEN_17 $end
   $var wire 32 $ io_rsp_bits_dataResponse_REG_5 $end
   $var wire 32 % _GEN_7 $end
   $var wire 1 ) io_intr_ovf $end
   $var wire 1 . reset $end
   $var wire 32 / _GEN_23 $end
   $var wire 1 7 _addr_miss_T $end
   $var wire 8 : maskedData_1 $end
   $var wire 1 = _addr_miss_T_2 $end
   $var wire 32 ? io_req_bits_addrRequest $end
   $var wire 32 @ _CompareReg_T_2 $end
   $var wire 1 A io_rsp_valid_REG_3 $end
   $var wire 1 B io_intr_cmp $end
   $var wire 1 C addr_miss $end
   $var wire 32 D io_rsp_bits_dataResponse_REG_4 $end
   $var wire 32 K _GEN_22 $end
   $var wire 32 M _ControlReg_T_2 $end
   $var wire 32 N _GEN_16 $end
   $var wire 32 O io_rsp_bits_dataResponse $end
   $var wire 32 Q _GEN_10 $end
   $var wire 1 S _GEN_25 $end
   $var wire 32 T _GEN_0 $end
   $var wire 32 U io_req_bits_dataRequest $end
   $var wire 32 \ _GEN_19 $end
   $var wire 32 ] _GEN_9 $end
   $var wire 32 ^ _GEN_13 $end
   $var wire 1 _ _GEN_3 $end
   $var wire 8 ` maskedData_3 $end
   $var wire 32 d ControlReg $end
   $var wire 32 e io_rsp_bits_dataResponse_REG_1 $end
   $var wire 1 g io_rsp_valid_REG_2 $end
   $var wire 1 k enable $end
   $var wire 32 n _TimerReg_T_1 $end
   $var wire 1 p io_rsp_valid_REG_5 $end
   $var wire 1 t _GEN_6 $end
   $var wire 32 u _ControlReg_T $end
   $var wire 32 v _PreCountReg_T_1 $end
   $var wire 31 w prescalar $end
   $var wire 1 { _T $end
   $var wire 32 | io_rsp_bits_dataResponse_REG $end
   $var wire 8 ~ maskedData_0 $end
   $var wire 1 "! io_rsp_bits_error_REG_2 $end
   $var wire 1 "" _addr_miss_T_1 $end
   $var wire 1 "' clock $end
   $var wire 1 "( io_req_bits_isWrite $end
   $var wire 1 ") io_rsp_valid $end
   $var wire 1 "* io_req_valid $end
   $var wire 32 "- _ControlReg_T_1 $end
   $var wire 32 "/ _GEN_21 $end
   $var wire 32 "0 _GEN_5 $end
   $var wire 32 "5 io_rsp_bits_dataResponse_REG_3 $end
   $var wire 32 "> _GEN_24 $end
   $var wire 32 "? io_rsp_bits_dataResponse_REG_6 $end
   $var wire 32 "B TimerReg $end
   $var wire 32 "C _GEN_18 $end
   $var wire 1 "F io_rsp_bits_error_REG $end
   $var wire 1 "G _GEN_8 $end
   $var wire 1 "H _GEN_12 $end
   $var wire 8 "I maskedData_2 $end
   $var wire 1 "K io_rsp_bits_error_REG_1 $end
   $var wire 1 "P io_rsp_valid_REG_1 $end
   $var wire 32 "S _GEN_2 $end
   $var wire 1 "T io_rsp_valid_REG $end
   $var wire 1 "V io_rsp_bits_error $end
   $var wire 1 "Y io_rsp_valid_REG_4 $end
   $var wire 4 "\ io_req_bits_activeByteLane $end
   $var wire 1 "] addr_hit_3 $end
   $var wire 32 "_ PreCountReg $end
   $var wire 32 "b _GEN_11 $end
   $var wire 32 "g CompareReg $end
   $var wire 32 "n _GEN_20 $end
   $var wire 32 "o io_rsp_bits_dataResponse_REG_2 $end
   $var wire 33 "q _TimerReg_T $end
   $var wire 32 "v _GEN_4 $end
  $upscope $end
$upscope $end
$enddefinitions $end
$dumpvars
b00000000000000000000000000000000 n
0C
0"7
0""
0"L
0&
b00000000000000000000000000000000 '
b00000000000000000000000000000000 ">
0"c
0o
0=
0"1
b00000000000000000000000000000000 "j
b00000000000000000000000000000000 "M
b00000000000000000000000000000000 "8
b0000 "e
0"P
0V
0"J
b00000000000000000000000000000000 O
b00000000 `
0m
b00000000000000000000000000000000 Q
b00000000000000000000000000000000 "`
0g
0"F
b00000000000000000000000000000000 K
05
0")
0L
b00000000000000000000000000000000 E
b00000000000000000000000000000000 0
0"#
0x
0[
0F
0":
0)
0z
0r
0"Q
0"<
0+
b00000000000000000000000000000000 "u
b00000000000000000000000000000000 $
b00000000000000000000000000000000 "C
b0000000000000000000000000000000 w
0W
b00000000 ~
b000000000000000000000000000000000 "
b00000000000000000000000000000000 "o
b0000 Z
0"U
0"l
0p
0"d
0"O
b00000000000000000000000000000000 T
b00000000000000000000000000000000 ?
0"2
0>
06
0"f
b00000000000000000000000000000000 "N
0"4
b0000 ",
0l
b000000000000000000000000000000000 "q
0"K
b00000000000000000000000000000000 e
0".
b0000 "&
b00000000000000000000000000000000 "g
0{
0f
0"Z
b00000000000000000000000000000000 |
b00000000000000000000000000000000 "5
0I
04
0"(
b00000000000000000000000000000000 J
b0000 "\
b00000000000000000000000000000000 "D
b00000000000000000000000000000000 "/
0"*
b00000000000000000000000000000000 /
0b
0"V
0"$
0(
b00000000 :
1"r
b00000000000000000000000000000000 "@
b00000000000000000000000000000000 "W
0"=
b00000000000000000000000000000000 -
b00000000000000000000000000000000 "v
0"i
0"T
b00000000000000000000000000000000 D
0;
0"k
b00000000000000000000000000000000 "S
b00000000000000000000000000000000 "6
0"9
b00000000000000000000000000000000 !
b0000 j
0q
0i
b00000000000000000000000000000000 U
0"H
0"3
07
b00000000000000000000000000000000 #
0k
09
b0000 "a
0P
03
0"'
b00000000000000000000000000000000 "h
b00000000000000000000000000000000 "b
0"]
b00000000000000000000000000000000 "E
b00000000000000000000000000000000 "0
b00000000000000000000000000000000 M
0"t
0c
b00000000000000000000000000000000 d
b00000000000000000000000000000000 \
b0000 *
01
0"%
0"Y
b00000000000000000000000000000000 "A
b00000000000000000000000000000000 ^
0"p
b00000000000000000000000000000000 u
0t
0_
b00000000000000000000000000000000 ";
b00000000000000000000000000000000 X
0B
0"!
0Y
0<
b00000000000000000000000000000000 "?
0S
b00000000000000000000000000000000 N
08
02
1"+
b00000000000000000000000000000000 R
b00000000000000000000000000000000 "-
0}
b0000 a
0h
0"G
0.
0"s
0"^
b00000000000000000000000000000000 "[
0y
0"m
0"X
b00000000000000000000000000000000 ]
0G
b00000000000000000000000000000000 H
b00000000000000000000000000000000 @
b00000000 "I
b00000000000000000000000000000000 "_
b00000000000000000000000000000000 "B
0s
0"R
0A
0,
b00000000000000000000000000000000 %
b00000000000000000000000000000000 "n
b00000000000000000000000000000000 v
$end
#0
b00000000000000000000000000000001 n
b000000000000000000000000000000001 "q
b000000000000000000000000000000001 "
1.
b00000000000000000000000000000001 v
1"3
1""
1=
17
1"9
1"d
1;
#1
1"L
11
1"Q
1}
1h
1"'
1".
1"R
#6
b00000000000000000000000000001000 "A
1"t
b00000000000000000000000000000001 R
0h
b00000000000000000000000000001000 ";
1"<
0"'
1"p
b00000000000000000000000000000001 0
1F
01
b00000000000000000000000000000001 "j
b1111 *
b00000000000000000000000000001000 "M
1"k
1"#
1I
1"l
1,
0"d
1"2
b1111 "e
0.
0"3
1"f
1"4
b1111 Z
0".
b1111 "a
0"L
b00000000000000000000000000001000 !
1r
1m
b00000000000000000000000000000001 "@
#11
1"^
13
1f
b1111 ",
14
b00000000000000000000000000001000 "W
b00000000000000000000000000000001 J
0}
1"%
b00000000000000000000000000000001 "v
16
b1111 "&
b11111111 ~
b1111 a
07
1"'
b1111 j
0"R
b00000000000000000000000000000001 M
11
1"U
b00000000000000000000000000000001 ]
b00000000000000000000000000000001 H
1{
1+
b00000000000000000000000000000001 ^
b00000000000000000000000000001000 "N
b11111111111111111111111111111111 u
b11111111 `
0"Q
1&
b11111111 "I
b00000000000000000000000000000001 '
1o
1x
b00000000000000000000000000000001 "-
b00000000000000000000000000001000 "`
1[
1".
b00000000000000000000000000000001 "D
b00000000000000000000000000001000 ?
b00000000000000000000000000000001 U
b00000000000000000000000000000001 @
1s
1"(
b00000000000000000000000000001000 "[
b00000000000000000000000000000001 #
1"1
19
b1111 "\
b11111111 :
1"*
#16
0r
0"t
01
0"'
0".
#21
1g
1"Y
1L
0"<
1"'
1"=
1c
b00000000000000000000000000001000 "S
11
1"i
1"T
b00000000000000000000000000001000 "?
b00000000000000000000000000000001 "6
1G
1"7
b00000000000000000000000000000001 e
b00000000000000000000000000000001 "8
1A
1t
1_
b00000000000000000000000000000001 -
1"P
b00000000000000000000000000000001 %
b00000000000000000000000000000001 "g
1"J
b00000000000000000000000000000001 "5
1p
1"K
1".
b00000000000000000000000000001000 T
b00000000000000000000000000000001 "b
b00000000000000000000000000000001 "E
b00000000000000000000000000000001 "0
1V
1"F
1")
1l
1"G
b00000000000000000000000000000001 O
1"H
#26
01
0"'
0".
#31
04
b00000000000000000000000000000000 "W
1h
06
1"'
b0000 j
b00000000000000000000000000000000 M
0"p
0"U
0{
b00000000000000000000000000000000 "8
0"#
0"l
b00000000000000000000000000000000 u
b00000000 `
b00000000000000000000000000000001 X
0&
b00000000 "I
0o
b00000000000000000000000000000001 E
b00000000000000000000000000000001 "h
1".
1q
b00000000000000000000000000000000 ?
b00000000000000000000000000001000 "b
b00000000000000000000000000000000 "E
b00000000000000000000000000001000 "0
0s
0"(
0V
09
b0000 "\
0"*
0"^
03
b0000 ",
1"$
b00000000000000000000000000000001 "u
b00000000000000000000000000000000 J
15
b00000000 ~
b0000 a
0L
17
1"Z
0c
11
0"i
1z
0"7
b00000000000000000000000000000000 H
0+
b00000000000000000000000000000000 "N
b00000000000000000000000000000000 -
b00000000000000000000000000001000 %
b00000000000000000000000000000001 D
b00000000000000000000000000000000 '
b00000000000000000000000000000000 "-
0[
b00000000000000000000000000000000 U
b00000000000000000000000000000000 "[
0"1
0l
b00000000000000000000000000000000 O
b00000000 :
#36
b00000000000000000000000000000011 0
1r
1"t
01
b00000000000000000000000000000011 "j
b00000000000000000000000000000100 ";
b00000000000000000000000000000100 "M
0"'
0".
#41
b00000000000000000000000000000100 "A
0g
b00000000000000000000000000000011 R
0"$
1}
0h
05
0"Y
1"<
1"'
0"Z
1"R
0"=
1"p
b00000000000000000000000000000000 "S
11
0"T
b00000000000000000000000000000000 "?
0G
0z
b00000000000000000000000000000000 e
1"#
1"l
0A
0t
0_
0"P
b00000000000000000000000000000000 %
1"Q
0"J
b00000000000000000000000000000000 "5
0p
0"K
1".
0q
b00000000000000000000000000000100 !
b00000000000000000000000000000000 T
b00000000000000000000000000000000 "b
b00000000000000000000000000000000 "0
0"F
0")
0"G
0"H
b00000000000000000000000000000011 "@
#46
01
0"'
0".
#51
1"^
13
b00000000000000000000000000000011 Q
b1111 ",
14
b00000000000000000000000000000100 "W
b00000000000000000000000000000011 J
0}
16
b11111111 ~
b1111 a
1"'
b1111 j
0"R
b00000000000000000000000000000011 M
b00000000000000000000000000000011 N
11
1"U
b00000000000000000000000000000011 H
1{
1+
b00000000000000000000000000000100 "N
b11111111111111111111111111111111 u
b11111111 `
0"Q
1&
b11111111 "I
b00000000000000000000000000000011 '
1o
b00000000000000000000000000000011 "-
b00000000000000000000000000000100 "`
1[
1".
b00000000000000000000000000000011 "D
b00000000000000000000000000000100 ?
b00000000000000000000000000000011 U
b00000000000000000000000000000011 @
1s
1"(
b00000000000000000000000000000100 "[
1"1
19
b1111 "\
b11111111 :
1"*
#56
01
0"'
0".
#61
1g
b00000000000000000000000000000001 "C
b00000000000000000000000000000001 K
b00000000000000000000000000000001 "n
1"Y
1L
0"<
1"'
b00000000000000000000000000000001 /
1"=
1c
b00000000000000000000000000000100 "S
11
b00000000000000000000000000000011 d
1"T
b00000000000000000000000000000100 "?
1"i
1G
1"7
b00000000000000000000000000000011 e
b00000000000000000000000000000011 "6
b00000000000000000000000000000011 "8
1A
1t
1_
b00000000000000000000000000000011 -
1"P
b00000000000000000000000000000100 %
b0000000000000000000000000000001 w
1"J
b00000000000000000000000000000011 "5
1p
1"K
1".
b00000000000000000000000000000100 T
b00000000000000000000000000000011 "b
b00000000000000000000000000000011 "E
b00000000000000000000000000000100 "0
1k
1V
1"F
1")
1l
1"G
b00000000000000000000000000000011 O
1"H
#66
01
0"'
0".
#71
b00000000000000000000000000000001 "_
04
b00000000000000000000000000000000 "W
1h
b00000000000000000000000000000000 K
06
b00000000000000000000000000000000 "n
1"'
b0000 j
0"p
b00000000000000000000000000000001 ">
0"U
0{
b00000000000000000000000000000000 "8
0"#
0"l
b00000000000000000000000000000000 u
b00000000 `
b00000000000000000000000000000011 X
0&
b00000000 "I
0o
b00000000000000000000000000000011 E
b00000000000000000000000000000011 "h
1".
b00000000000000000000000000000001 \
1q
b00000000000000000000000000000000 ?
b00000000000000000000000000000100 "b
b000000000000000000000000000000010 "
b00000000000000000000000000000000 "E
0s
0"(
0V
09
b0000 "\
0"*
0"^
03
b0000 ",
1"$
b00000000000000000000000000000011 "u
b00000000000000000000000000000000 J
15
b00000000 ~
b0000 a
0L
b00000000000000000000000000000011 "o
1"Z
b00000000000000000000000000000000 /
0c
11
0"i
1z
0"7
b00000000000000000000000000000000 H
0+
b00000000000000000000000000000000 "N
b00000000000000000000000000000000 -
b00000000000000000000000000000010 v
b00000000000000000000000000000000 '
b00000000000000000000000000000000 "-
0[
b00000000000000000000000000000001 "/
b00000000000000000000000000000000 U
b00000000000000000000000000000001 @
b00000000000000000000000000000000 "[
0"1
0l
b00000000000000000000000000000000 O
b00000000 :
#76
01
0"'
0".
#81
b00000000000000000000000000000000 "_
0g
0"$
b00000000000000000000000000000001 "B
1}
0h
05
b00000000000000000000000000000001 "n
0"Y
1"<
1"'
0"Z
b00000000000000000000000000000001 /
1"R
0"=
1"p
b00000000000000000000000000000000 "S
b000000000000000000000000000000010 "q
11
0"T
b00000000000000000000000000000000 "?
0G
12
b00000000000000000000000000000000 e
0z
1"#
1"l
0A
0t
0_
1B
0"P
b00000000000000000000000000000000 %
b00000000000000000000000000000001 v
1"Q
0"J
b00000000000000000000000000000000 "5
0p
0"K
1".
0q
b00000000000000000000000000000000 T
b00000000000000000000000000000000 "/
b00000000000000000000000000000000 "b
b000000000000000000000000000000001 "
b00000000000000000000000000000000 "0
0"F
b00000000000000000000000000000001 $
0")
0"G
0"H
b00000000000000000000000000000010 n
#86
01
0"'
0".
#91
1"^
13
b1111 ",
b00000000000000000000000000000001 "_
14
b00000000000000000000000000000100 "W
b00000000000000000000000000000011 J
0}
b00000000000000000000000000000001 K
16
b00000000000000000000000000000000 "n
b11111111 ~
b1111 a
1"'
b1111 j
0"R
b00000000000000000000000000000000 ">
11
1"U
b00000000000000000000000000000011 H
1{
1+
b00000000000000000000000000000100 "N
b00000000000000000000000000000001 |
b11111111111111111111111111111111 u
b11111111 `
b00000000000000000000000000000010 v
0"Q
1&
b11111111 "I
b00000000000000000000000000000011 '
1o
b00000000000000000000000000000011 "-
1[
1".
b00000000000000000000000000000010 \
b00000000000000000000000000000100 ?
b000000000000000000000000000000010 "
b00000000000000000000000000000011 U
b00000000000000000000000000000011 @
1s
1"(
b00000000000000000000000000000100 "[
1"1
19
b00000000000000000000000000000000 $
b1111 "\
b11111111 :
1"*
#96
01
0"'
0".
#101
1g
b00000000000000000000000000000000 "B
b00000000000000000000000000000000 K
1"Y
1L
0"<
1"'
b00000000000000000000000000000000 /
1"=
1c
b00000000000000000000000000000100 "S
b00000000000000000000000000000001 ">
b000000000000000000000000000000001 "q
11
1"i
1"T
b00000000000000000000000000000100 "?
1G
02
b00000000000000000000000000000011 e
1"7
b00000000000000000000000000000011 "8
1A
1t
1_
0B
b00000000000000000000000000000011 -
1"P
b00000000000000000000000000000100 %
1"J
b00000000000000000000000000000011 "5
1p
1"K
1".
b00000000000000000000000000000001 \
b00000000000000000000000000000100 T
b00000000000000000000000000000001 "/
b00000000000000000000000000000011 "b
b00000000000000000000000000000011 "E
b00000000000000000000000000000100 "0
1V
1"F
b00000000000000000000000000000001 $
1")
1"G
1l
b00000000000000000000000000000011 O
1"H
b00000000000000000000000000000001 n
#106
01
0"'
0".
#111
b00000000000000000000000000000000 "_
04
b00000000000000000000000000000000 "W
b00000000000000000000000000000001 "B
1h
06
b00000000000000000000000000000001 "n
1"'
b0000 j
0"p
12
0"U
0{
b00000000000000000000000000000000 "8
0"#
0"l
b00000000000000000000000000000000 u
b00000000 `
0&
b00000000 "I
0o
1".
1q
b00000000000000000000000000000000 ?
b00000000000000000000000000000100 "b
b000000000000000000000000000000001 "
b00000000000000000000000000000000 "E
0s
0"(
0V
09
b0000 "\
0"*
0"^
03
b0000 ",
1"$
b00000000000000000000000000000000 J
15
b00000000 ~
b0000 a
0L
1"Z
b00000000000000000000000000000001 /
0c
b000000000000000000000000000000010 "q
11
0"i
1z
0"7
b00000000000000000000000000000000 H
0+
b00000000000000000000000000000000 "N
b00000000000000000000000000000000 |
1B
b00000000000000000000000000000000 -
b00000000000000000000000000000001 v
b00000000000000000000000000000000 '
b00000000000000000000000000000000 "-
0[
b00000000000000000000000000000000 "/
b00000000000000000000000000000000 U
b00000000000000000000000000000001 @
b00000000000000000000000000000000 "[
0"1
0l
b00000000000000000000000000000000 O
b00000000 :
b00000000000000000000000000000010 n
#116
01
0"'
0".
#121
b00000000000000000000000000000001 "_
0g
0"$
1}
0h
05
b00000000000000000000000000000001 K
b00000000000000000000000000000000 "n
0"Y
1"<
1"'
0"Z
1"R
0"=
1"p
b00000000000000000000000000000000 "S
b00000000000000000000000000000000 ">
11
0"T
b00000000000000000000000000000000 "?
0G
0z
b00000000000000000000000000000000 e
b00000000000000000000000000000001 "8
1"#
b00000000000000000000000000000001 |
1"l
0A
0t
0_
b00000000000000000000000000000001 -
0"P
b00000000000000000000000000000000 %
b00000000000000000000000000000010 v
1"Q
0"J
b00000000000000000000000000000000 "5
0p
0"K
1".
b00000000000000000000000000000010 \
0q
b00000000000000000000000000000000 T
b00000000000000000000000000000000 "b
b000000000000000000000000000000010 "
b00000000000000000000000000000001 "E
b00000000000000000000000000000000 "0
0"F
b00000000000000000000000000000000 $
0")
0"G
b00000000000000000000000000000001 O
0"H
#126
01
0"'
0".
#131
1"^
13
b1111 ",
14
b00000000000000000000000000000100 "W
b00000000000000000000000000000000 "B
b00000000000000000000000000000011 J
0}
b00000000000000000000000000000000 K
16
b11111111 ~
b1111 a
1"'
b1111 j
b00000000000000000000000000000000 /
0"R
b00000000000000000000000000000001 ">
b000000000000000000000000000000001 "q
11
02
1"U
b00000000000000000000000000000011 H
1{
b00000000000000000000000000000000 "8
1+
b00000000000000000000000000000100 "N
0B
b11111111111111111111111111111111 u
b11111111 `
b00000000000000000000000000000000 -
0"Q
1&
b11111111 "I
b00000000000000000000000000000011 '
1o
b00000000000000000000000000000011 "-
1[
1".
b00000000000000000000000000000001 \
b00000000000000000000000000000100 ?
b00000000000000000000000000000001 "/
b00000000000000000000000000000011 U
b00000000000000000000000000000000 "E
1s
b00000000000000000000000000000011 @
1"(
b00000000000000000000000000000100 "[
1"1
19
b00000000000000000000000000000001 $
b1111 "\
b00000000000000000000000000000000 O
b11111111 :
1"*
b00000000000000000000000000000001 n
#136
01
0"'
0".
#141
b00000000000000000000000000000000 "_
1g
b00000000000000000000000000000001 "B
b00000000000000000000000000000001 "n
1"Y
1L
0"<
1"'
b00000000000000000000000000000001 /
1"=
1c
b00000000000000000000000000000100 "S
b000000000000000000000000000000010 "q
11
1"i
1"T
b00000000000000000000000000000100 "?
1G
12
b00000000000000000000000000000011 e
1"7
b00000000000000000000000000000011 "8
b00000000000000000000000000000000 |
1A
1t
1_
1B
b00000000000000000000000000000011 -
1"P
b00000000000000000000000000000100 %
b00000000000000000000000000000001 v
1"J
b00000000000000000000000000000011 "5
1p
1"K
1".
b00000000000000000000000000000100 T
b00000000000000000000000000000000 "/
b00000000000000000000000000000011 "b
b000000000000000000000000000000001 "
b00000000000000000000000000000011 "E
b00000000000000000000000000000100 "0
1V
1"F
1")
1l
1"G
b00000000000000000000000000000011 O
1"H
b00000000000000000000000000000010 n
#146
01
0"'
0".
#151
b00000000000000000000000000000001 "_
04
b00000000000000000000000000000000 "W
1h
b00000000000000000000000000000001 K
06
b00000000000000000000000000000000 "n
1"'
b0000 j
0"p
b00000000000000000000000000000000 ">
0"U
0{
b00000000000000000000000000000001 "8
0"#
0"l
b00000000000000000000000000000000 u
b00000000 `
0&
b00000000 "I
0o
1".
b00000000000000000000000000000010 \
1q
b00000000000000000000000000000000 ?
b00000000000000000000000000000100 "b
b000000000000000000000000000000010 "
b00000000000000000000000000000001 "E
0s
0"(
0V
09
b00000000000000000000000000000000 $
b0000 "\
0"*
0"^
03
b0000 ",
1"$
b00000000000000000000000000000000 J
15
b00000000 ~
b0000 a
0L
1"Z
0c
11
0"i
1z
0"7
b00000000000000000000000000000000 H
0+
b00000000000000000000000000000000 "N
b00000000000000000000000000000001 |
b00000000000000000000000000000001 -
b00000000000000000000000000000010 v
b00000000000000000000000000000000 '
b00000000000000000000000000000000 "-
0[
b00000000000000000000000000000000 U
b00000000000000000000000000000001 @
b00000000000000000000000000000000 "[
0"1
0l
b00000000000000000000000000000001 O
b00000000 :
#156
01
0"'
0".
#161
0g
0"$
b00000000000000000000000000000000 "B
1}
0h
05
b00000000000000000000000000000000 K
0"Y
1"<
1"'
0"Z
b00000000000000000000000000000000 /
1"R
0"=
1"p
b00000000000000000000000000000000 "S
b00000000000000000000000000000001 ">
b000000000000000000000000000000001 "q
11
0"T
b00000000000000000000000000000000 "?
0G
02
b00000000000000000000000000000000 e
0z
1"#
1"l
0A
0t
0_
0B
0"P
b00000000000000000000000000000000 %
1"Q
0"J
b00000000000000000000000000000000 "5
0p
0"K
1".
b00000000000000000000000000000001 \
0q
b00000000000000000000000000000000 T
b00000000000000000000000000000001 "/
b00000000000000000000000000000000 "b
b00000000000000000000000000000000 "0
0"F
b00000000000000000000000000000001 $
0")
0"G
0"H
b00000000000000000000000000000001 n
#166
01
0"'
0".
#171
1"^
13
b1111 ",
b00000000000000000000000000000000 "_
14
b00000000000000000000000000000100 "W
b00000000000000000000000000000001 "B
b00000000000000000000000000000011 J
0}
16
b00000000000000000000000000000001 "n
b11111111 ~
b1111 a
1"'
b1111 j
b00000000000000000000000000000001 /
0"R
b000000000000000000000000000000010 "q
11
12
1"U
b00000000000000000000000000000011 H
1{
b00000000000000000000000000000000 "8
1+
b00000000000000000000000000000100 "N
b00000000000000000000000000000000 |
1B
b11111111111111111111111111111111 u
b11111111 `
b00000000000000000000000000000000 -
b00000000000000000000000000000001 v
0"Q
1&
b11111111 "I
b00000000000000000000000000000011 '
1o
b00000000000000000000000000000011 "-
1[
1".
b00000000000000000000000000000100 ?
b00000000000000000000000000000000 "/
b000000000000000000000000000000001 "
b00000000000000000000000000000011 U
b00000000000000000000000000000000 "E
1s
b00000000000000000000000000000011 @
1"(
b00000000000000000000000000000100 "[
1"1
19
b1111 "\
b00000000000000000000000000000000 O
b11111111 :
1"*
b00000000000000000000000000000010 n
#176
01
0"'
0".
#181
b00000000000000000000000000000001 "_
1g
b00000000000000000000000000000001 K
b00000000000000000000000000000000 "n
1"Y
1L
0"<
1"'
1"=
1c
b00000000000000000000000000000100 "S
b00000000000000000000000000000000 ">
11
1"i
1"T
b00000000000000000000000000000100 "?
1G
1"7
b00000000000000000000000000000011 e
b00000000000000000000000000000011 "8
b00000000000000000000000000000001 |
1A
1t
1_
b00000000000000000000000000000011 -
1"P
b00000000000000000000000000000100 %
b00000000000000000000000000000010 v
1"J
b00000000000000000000000000000011 "5
1p
1"K
1".
b00000000000000000000000000000010 \
b00000000000000000000000000000100 T
b00000000000000000000000000000011 "b
b000000000000000000000000000000010 "
b00000000000000000000000000000011 "E
b00000000000000000000000000000100 "0
1V
1"F
b00000000000000000000000000000000 $
1")
1"G
1l
b00000000000000000000000000000011 O
1"H
#186
01
0"'
0".
#191
04
b00000000000000000000000000000000 "W
b00000000000000000000000000000000 "B
1h
b00000000000000000000000000000000 K
06
1"'
b0000 j
0"p
b00000000000000000000000000000001 ">
02
0"U
0{
b00000000000000000000000000000001 "8
0"#
0"l
b00000000000000000000000000000000 u
b00000000 `
0&
b00000000 "I
0o
1".
b00000000000000000000000000000001 \
1q
b00000000000000000000000000000000 ?
b00000000000000000000000000000100 "b
b00000000000000000000000000000001 "E
0s
0"(
0V
09
b00000000000000000000000000000001 $
b0000 "\
0"*
0"^
03
b0000 ",
1"$
b00000000000000000000000000000000 J
15
b00000000 ~
b0000 a
0L
1"Z
b00000000000000000000000000000000 /
0c
b000000000000000000000000000000001 "q
11
0"i
1z
0"7
b00000000000000000000000000000000 H
0+
b00000000000000000000000000000000 "N
0B
b00000000000000000000000000000001 -
b00000000000000000000000000000000 '
b00000000000000000000000000000000 "-
0[
b00000000000000000000000000000001 "/
b00000000000000000000000000000000 U
b00000000000000000000000000000001 @
b00000000000000000000000000000000 "[
0"1
0l
b00000000000000000000000000000001 O
b00000000 :
b00000000000000000000000000000001 n
#196
01
0"'
0".
