test_run_dir/Timer_Tests/TimerHarness.vcd
$date
2022-03-26T14:54+0000
$end
$version
0.2
$end
$comment

$end
$timescale 1ns  $end
$scope module TimerHarness $end
 $var wire 1 < timer $end
 $var wire 32 B io_rsp_bits_dataResponse $end
 $var wire 1 f io_rsp_bits_error $end
 $var wire 1 n io_rsp_valid $end
 $var wire 1 o io_req_valid $end
 $var wire 1 "- clock $end
 $var wire 1 "9 deviceAdapter $end
 $var wire 32 ": io_req_bits_addrRequest $end
 $var wire 1 "N io_rsp_ready $end
 $var wire 1 "Q io_req_ready $end
 $var wire 1 "V io_cio_timer_intr_ovf $end
 $var wire 1 "c hostAdapter $end
 $var wire 1 "d reset $end
 $var wire 1 "e io_cio_timer_intr_cmp $end
 $var wire 4 "f io_req_bits_activeByteLane $end
 $var wire 1 "g io_req_bits_isWrite $end
 $var wire 32 "k io_req_bits_dataRequest $end
  $scope module hostAdapter $end
   $var wire 32 ! _GEN_13 $end
   $var wire 1 ( _GEN_28 $end
   $var wire 4 ) io_reqIn_bits_activeByteLane $end
   $var wire 1 + _GEN_5 $end
   $var wire 32 / io_reqIn_bits_dataRequest $end
   $var wire 1 0 clock $end
   $var wire 1 1 io_wbMasterTransmitter_bits_stb $end
   $var wire 1 2 io_wbMasterTransmitter_valid $end
   $var wire 1 3 io_rspOut_valid $end
   $var wire 1 4 startWBTransaction $end
   $var wire 1 C _GEN_4 $end
   $var wire 1 D _GEN_27 $end
   $var wire 32 E io_wbMasterTransmitter_bits_dat $end
   $var wire 1 F io_reqIn_bits_isWrite $end
   $var wire 1 I _GEN_33 $end
   $var wire 1 M errReg $end
   $var wire 32 O _GEN_7 $end
   $var wire 1 S _stateReg_T $end
   $var wire 1 T io_rspOut_bits_error $end
   $var wire 32 U io_rspOut_bits_dataResponse $end
   $var wire 4 W _GEN_15 $end
   $var wire 1 _ _GEN_24 $end
   $var wire 1 c cycReg $end
   $var wire 1 e _GEN_1 $end
   $var wire 4 g io_wbMasterTransmitter_bits_sel $end
   $var wire 1 i _GEN_30 $end
   $var wire 1 j _GEN_12 $end
   $var wire 1 p io_wbMasterTransmitter_bits_cyc $end
   $var wire 1 v stbReg $end
   $var wire 1 x stateReg $end
   $var wire 1 { io_reqIn_ready $end
   $var wire 1 "! _GEN_9 $end
   $var wire 1 "" _GEN_23 $end
   $var wire 1 "# weReg $end
   $var wire 4 "$ selReg $end
   $var wire 1 "1 _GEN_11 $end
   $var wire 1 "2 reset $end
   $var wire 1 "3 _GEN_3 $end
   $var wire 32 "5 _GEN_26 $end
   $var wire 1 "6 _GEN_32 $end
   $var wire 1 "8 io_wbMasterTransmitter_ready $end
   $var wire 1 "; _GEN_29 $end
   $var wire 32 "? _GEN_14 $end
   $var wire 32 "@ _GEN_6 $end
   $var wire 32 "C datReg $end
   $var wire 32 "D io_wbSlaveReceiver_bits_dat $end
   $var wire 1 "K _GEN_0 $end
   $var wire 32 "L io_reqIn_bits_addrRequest $end
   $var wire 1 "P readyReg $end
   $var wire 1 "X io_wbSlaveReceiver_bits_err $end
   $var wire 1 "Z respReg $end
   $var wire 32 "[ io_wbMasterTransmitter_bits_adr $end
   $var wire 1 "^ io_wbMasterTransmitter_bits_we $end
   $var wire 32 "` adrReg $end
   $var wire 4 "a _GEN_8 $end
   $var wire 32 "i _GEN_22 $end
   $var wire 1 "j io_wbSlaveReceiver_bits_ack $end
   $var wire 1 "l _GEN_10 $end
   $var wire 1 "m _GEN_2 $end
   $var wire 1 "p _GEN_25 $end
   $var wire 1 "r io_wbSlaveReceiver_ready $end
   $var wire 1 "s _GEN_31 $end
   $var wire 1 "t io_reqIn_valid $end
   $var wire 32 "u dataReg $end
  $upscope $end
  $scope module deviceAdapter $end
   $var wire 1 & io_reqOut_valid $end
   $var wire 32 ' io_reqOut_bits_dataRequest $end
   $var wire 1 * io_wbMasterReceiver_bits_we $end
   $var wire 32 , io_wbSlaveTransmitter_bits_dat $end
   $var wire 1 6 io_rspIn_bits_error $end
   $var wire 1 7 io_wbMasterReceiver_bits_stb $end
   $var wire 1 9 io_wbSlaveTransmitter_ready $end
   $var wire 1 : io_wbSlaveTransmitter_bits_err $end
   $var wire 32 G io_wbMasterReceiver_bits_dat $end
   $var wire 1 V _GEN_5 $end
   $var wire 1 X io_wbMasterReceiver_valid $end
   $var wire 4 ^ io_wbMasterReceiver_bits_sel $end
   $var wire 1 ` io_wbSlaveTransmitter_bits_ack $end
   $var wire 1 l io_wbMasterReceiver_bits_cyc $end
   $var wire 1 w _GEN_19 $end
   $var wire 1 "* io_wbMasterReceiver_ready $end
   $var wire 4 "+ io_reqOut_bits_activeByteLane $end
   $var wire 1 "0 io_reqOut_bits_isWrite $end
   $var wire 32 "7 io_rspIn_bits_dataResponse $end
   $var wire 1 "< _GEN_18 $end
   $var wire 1 "I io_rspIn_valid $end
   $var wire 32 "M io_reqOut_bits_addrRequest $end
   $var wire 1 "T _T $end
   $var wire 32 "W io_wbMasterReceiver_bits_adr $end
  $upscope $end
  $scope module timer $end
   $var wire 33 " _PreCountReg_T $end
   $var wire 32 # _GEN_17 $end
   $var wire 32 $ io_rsp_bits_dataResponse_REG_5 $end
   $var wire 32 % _GEN_7 $end
   $var wire 1 - reset $end
   $var wire 32 . _GEN_23 $end
   $var wire 1 5 _addr_miss_T $end
   $var wire 8 8 maskedData_1 $end
   $var wire 1 ; _addr_miss_T_2 $end
   $var wire 32 = io_req_bits_addrRequest $end
   $var wire 32 > _CompareReg_T_2 $end
   $var wire 1 ? io_rsp_valid_REG_3 $end
   $var wire 1 @ addr_miss $end
   $var wire 32 A io_rsp_bits_dataResponse_REG_4 $end
   $var wire 32 H _GEN_22 $end
   $var wire 32 J _ControlReg_T_2 $end
   $var wire 32 K _GEN_16 $end
   $var wire 32 L io_rsp_bits_dataResponse $end
   $var wire 32 N _GEN_10 $end
   $var wire 1 P _GEN_25 $end
   $var wire 32 Q _GEN_0 $end
   $var wire 32 R io_req_bits_dataRequest $end
   $var wire 32 Y _GEN_19 $end
   $var wire 32 Z _GEN_9 $end
   $var wire 32 [ _GEN_13 $end
   $var wire 1 \ _GEN_3 $end
   $var wire 8 ] maskedData_3 $end
   $var wire 32 a ControlReg $end
   $var wire 32 b io_rsp_bits_dataResponse_REG_1 $end
   $var wire 1 d io_rsp_valid_REG_2 $end
   $var wire 1 h enable $end
   $var wire 32 k _TimerReg_T_1 $end
   $var wire 1 m io_rsp_valid_REG_5 $end
   $var wire 1 q _GEN_6 $end
   $var wire 32 r _ControlReg_T $end
   $var wire 32 s _PreCountReg_T_1 $end
   $var wire 1 t io_cio_timer_intr_cmp $end
   $var wire 31 u prescalar $end
   $var wire 1 y _T $end
   $var wire 32 z io_rsp_bits_dataResponse_REG $end
   $var wire 8 | maskedData_0 $end
   $var wire 1 } io_rsp_bits_error_REG_2 $end
   $var wire 1 ~ _addr_miss_T_1 $end
   $var wire 1 "% clock $end
   $var wire 1 "& io_cio_timer_intr_ovf $end
   $var wire 1 "' io_req_bits_isWrite $end
   $var wire 1 "( io_rsp_valid $end
   $var wire 1 ") io_req_valid $end
   $var wire 32 ", _ControlReg_T_1 $end
   $var wire 32 ". _GEN_21 $end
   $var wire 32 "/ _GEN_5 $end
   $var wire 32 "4 io_rsp_bits_dataResponse_REG_3 $end
   $var wire 32 "= _GEN_24 $end
   $var wire 32 "> io_rsp_bits_dataResponse_REG_6 $end
   $var wire 32 "A TimerReg $end
   $var wire 32 "B _GEN_18 $end
   $var wire 1 "E io_rsp_bits_error_REG $end
   $var wire 1 "F _GEN_8 $end
   $var wire 1 "G _GEN_12 $end
   $var wire 8 "H maskedData_2 $end
   $var wire 1 "J io_rsp_bits_error_REG_1 $end
   $var wire 1 "O io_rsp_valid_REG_1 $end
   $var wire 32 "R _GEN_2 $end
   $var wire 1 "S io_rsp_valid_REG $end
   $var wire 1 "U io_rsp_bits_error $end
   $var wire 1 "Y io_rsp_valid_REG_4 $end
   $var wire 4 "\ io_req_bits_activeByteLane $end
   $var wire 1 "] addr_hit_3 $end
   $var wire 32 "_ PreCountReg $end
   $var wire 32 "b _GEN_11 $end
   $var wire 32 "h CompareReg $end
   $var wire 32 "n _GEN_20 $end
   $var wire 32 "o io_rsp_bits_dataResponse_REG_2 $end
   $var wire 33 "q _TimerReg_T $end
   $var wire 32 "v _GEN_4 $end
  $upscope $end
$upscope $end
$enddefinitions $end
$dumpvars
0X
0C
b00000000000000000000000000000000 Y
0""
0&
b00000000000000000000000000000000 '
b00000000000000000000000000000000 ">
0"c
0o
0"1
b00000000000000000000000000000000 r
b00000000000000000000000000000000 "M
0"P
b0000 "+
0"g
b0000 W
0V
0"J
b00000000000000000000000000000000 O
0m
b00000000000000000000000000000000 "4
b00000000000000000000000000000000 Q
b00000000000000000000000000000000 "`
0"F
b00000000000000000000000000000000 ".
b00000000000000000000000000000000 K
05
0")
0~
b00000000000000000000000000000000 b
b00000000000000000000000000000000 E
0D
0"#
0x
0F
1"*
b00000000000000000000000000000000 s
0"Q
0"<
0@
0+
b00000000000000000000000000000000 "u
b00000000000000000000000000000000 A
b00000000000000000000000000000000 $
b00000000000000000000000000000000 "C
b000000000000000000000000000000000 "
b00000000000000000000000000000000 "o
0v
0"j
0"U
b00000000000000000000000000000000 "=
b00000000000000000000000000000000 Z
b00000000000000000000000000000000 "R
0"8
0"l
0p
0"d
0"O
0"2
06
b00000000 ]
b00000000000000000000000000000000 "k
b00000000000000000000000000000000 k
b00000000 |
0l
b000000000000000000000000000000000 "q
0"K
0:
0{
0f
0"Z
0"E
b00000000000000000000000000000000 "5
0I
04
0"(
b00000000000000000000000000000000 J
b00000000000000000000000000000000 "L
b0000 "\
0`
b00000000000000000000000000000000 "D
b00000000000000000000000000000000 "/
b00000000000000000000000000000000 /
0w
0"V
00
b0000 "$
0(
1"r
b00000000000000000000000000000000 "@
0?
b00000000000000000000000000000000 "W
b00000000000000000000000000000000 B
b00000000000000000000000000000000 "v
0"T
0;
b00000000000000000000000000000000 [
0"N
0"9
b0000 )
b00000000000000000000000000000000 >
b00000000000000000000000000000000 !
0q
0"e
0i
b00000000000000000000000000000000 U
0T
0"3
07
b00000000000000000000000000000000 #
b00000000000000000000000000000000 ":
09
0"-
b0000 "a
0e
0P
03
0"'
b00000000000000000000000000000000 "h
b00000000000000000000000000000000 .
0-
b00000000000000000000000000000000 "b
0"]
0"t
0c
b00000000000000000000000000000000 G
01
0"%
b00000000 "H
b0000 ^
0"Y
b00000000000000000000000000000000 "A
b00000000000000000000000000000000 ",
b0000000000000000000000000000000 u
b00000000000000000000000000000000 ,
0"p
0t
0_
0"S
0"6
0"!
0n
0<
b00000000000000000000000000000000 =
b00000000000000000000000000000000 "i
b00000000000000000000000000000000 "?
b00000000000000000000000000000000 "7
0S
b0000 "f
0j
0"I
0M
b00000000000000000000000000000000 N
0d
02
b0000 g
b00000000000000000000000000000000 R
0"0
0}
0h
0"G
b00000000000000000000000000000000 a
b00000000000000000000000000000000 L
0"s
0"^
b00000000 8
b00000000000000000000000000000000 "[
0y
0"m
0"X
b00000000000000000000000000000000 z
0\
b00000000000000000000000000000000 H
0";
0"&
0*
b00000000000000000000000000000000 "_
b00000000000000000000000000000000 "B
b00000000000000000000000000000000 %
b00000000000000000000000000000000 "n
$end
#0
1-
1"2
b000000000000000000000000000000001 "q
b000000000000000000000000000000001 "
b00000000000000000000000000000001 s
b00000000000000000000000000000001 k
15
19
1~
1"8
1"d
1;
#1
10
1"P
1"Q
1"%
1e
1{
1"-
1"K
#6
1"t
0"%
1";
1j
b00000000000000000000000000000001 /
1"p
00
1F
1"!
b00000000000000000000000000000001 "?
0e
b00000000000000000000000000000001 "k
1+
1"l
0"d
b00000000000000000000000000001000 ":
1"m
0-
0"2
1C
1"3
b1111 "f
1"g
1o
0"-
0"K
b1111 )
b1111 "a
b00000000000000000000000000001000 "L
b00000000000000000000000000001000 !
1"1
b1111 W
b00000000000000000000000000000001 O
b00000000000000000000000000001000 "@
#11
1"^
b00000000000000000000000000000001 ",
14
b1111 "$
b1111 g
b00000000000000000000000000000001 R
b00000000000000000000000000001000 "W
b00000000000000000000000000000001 J
05
1"%
b00000000000000000000000000000001 "C
b00000000000000000000000000000001 "v
17
1"'
10
1c
1y
11
1"T
b00000000000000000000000000000001 G
12
1*
b11111111 ]
b00000000000000000000000000001000 "M
0{
1"#
b1111 ^
b11111111 |
0"P
1X
1v
0"Q
1&
b00000000000000000000000000000001 '
b00000000000000000000000000000001 Z
b00000000000000000000000000000001 E
b00000000000000000000000000001000 =
1"-
b00000000000000000000000000001000 "`
1p
b00000000000000000000000000000001 [
b00000000000000000000000000000001 >
b11111111111111111111111111111111 r
1"0
b11111111 8
b00000000000000000000000000000001 #
b00000000000000000000000000001000 "[
1l
b1111 "\
1")
b11111111 "H
b1111 "+
#16
00
0"t
0"%
0o
0"-
#21
b00000000000000000000000000001000 Q
1"%
1S
0";
1i
1"Y
b00000000000000000000000000000001 L
1"<
b00000000000000000000000000000001 b
b00000000000000000000000000001000 "R
10
1"S
b00000000000000000000000000001000 ">
1"6
1d
b00000000000000000000000000000001 "7
1"j
1I
b00000000000000000000000000000001 ,
1"O
1`
b00000000000000000000000000000001 %
1"I
b00000000000000000000000000000001 "4
1D
1"J
b00000000000000000000000000000001 "5
b00000000000000000000000000000001 "h
1"-
1q
1\
1?
b00000000000000000000000000000001 "/
b00000000000000000000000000000001 "b
b00000000000000000000000000000001 "D
1"E
1"(
1"F
1"G
1m
#26
00
0"%
0"-
#31
b0000 "+
04
b00000000000000000000000000000000 "W
1"%
0S
0"'
0"p
10
0y
0"6
0"!
b00000000000000000000000000000000 G
02
0"j
0*
b00000000000000000000000000000000 "M
b0000 ^
0I
b00000000000000000000000000000001 A
b00000000000000000000000000000000 ,
0`
0X
0&
b00000000000000000000000000000000 E
b00000000000000000000000000000000 =
b00000000000000000000000000001000 "b
0"0
b0000 "\
0"^
13
b00000000000000000000000000000000 ",
b0000 g
b00000000000000000000000000000000 R
b00000000000000000000000000000001 "u
b00000000000000000000000000000000 J
15
0i
b00000000000000000000000000000000 L
07
1"Z
01
b00000000000000000000000000000001 "i
0"T
b00000000000000000000000000000000 "7
1e
1""
b00000000 ]
b00000000 |
0"m
b00000000000000000000000000000001 B
b00000000000000000000000000001000 %
b00000000000000000000000000000000 '
1x
1"-
0p
b00000000000000000000000000000000 "D
b00000000000000000000000000000000 r
b00000000000000000000000000001000 "/
b00000000000000000000000000000001 U
b00000000 8
b00000000000000000000000000000000 "[
0l
0")
b00000000 "H
1n
#36
b00000000000000000000000000000100 ":
b00000000000000000000000000000100 "L
00
1"t
0"%
1o
b00000000000000000000000000000011 "k
0"-
b00000000000000000000000000000011 /
#41
03
b00000000000000000000000000000000 Q
1"%
1";
0"Y
0"<
0"Z
b00000000000000000000000000000000 b
b00000000000000000000000000000000 "R
1"p
10
0"S
b00000000000000000000000000000000 ">
0d
1"!
b00000000000000000000000000000011 "?
0e
0""
1{
0"O
1"m
1"P
b00000000000000000000000000000000 %
1"Q
0"I
b00000000000000000000000000000000 "4
0D
0"J
0x
1"-
0q
0\
b00000000000000000000000000000100 !
0?
b00000000000000000000000000000000 "/
b00000000000000000000000000000000 "b
0"E
0"(
0"F
0"G
b00000000000000000000000000000011 O
0m
b00000000000000000000000000000100 "@
0n
#46
00
0"%
0"-
#51
1"^
b00000000000000000000000000000011 ",
14
b1111 g
b00000000000000000000000000000011 R
b00000000000000000000000000000100 "W
b00000000000000000000000000000011 J
1"%
b00000000000000000000000000000011 "C
b00000000000000000000000000000011 K
17
1"'
10
b00000000000000000000000000000011 N
1y
11
1"T
b00000000000000000000000000000011 G
12
1*
b11111111 ]
b00000000000000000000000000000100 "M
0{
b1111 ^
b11111111 |
0"P
1X
0"Q
1&
b00000000000000000000000000000011 '
b00000000000000000000000000000011 E
b00000000000000000000000000000100 =
1"-
b00000000000000000000000000000100 "`
1p
b00000000000000000000000000000011 >
b11111111111111111111111111111111 r
1"0
b11111111 8
b00000000000000000000000000000100 "[
1l
b1111 "\
1")
b11111111 "H
b1111 "+
#56
00
0"%
0"-
#61
b00000000000000000000000000000100 Q
b00000000000000000000000000000001 "B
1"%
1h
1S
0";
b00000000000000000000000000000001 "n
1"Y
1i
b00000000000000000000000000000011 a
b00000000000000000000000000000011 L
1"<
b00000000000000000000000000000011 b
b00000000000000000000000000000100 "R
10
1"S
b00000000000000000000000000000100 ">
1"6
1d
b00000000000000000000000000000011 "7
1"j
b00000000000000000000000000000001 H
1I
b00000000000000000000000000000011 ,
1"O
b0000000000000000000000000000001 u
1`
b00000000000000000000000000000100 %
b00000000000000000000000000000001 .
1"I
b00000000000000000000000000000011 "4
1D
1"J
b00000000000000000000000000000011 "5
1"-
1q
1\
1?
b00000000000000000000000000000100 "/
b00000000000000000000000000000011 "b
b00000000000000000000000000000011 "D
1"E
1"(
1"F
1"G
1m
#66
00
0"%
0"-
#71
b0000 "+
b00000000000000000000000000000001 "_
04
b00000000000000000000000000000000 "W
1"%
0S
b00000000000000000000000000000000 "n
0"'
0"p
10
0y
0"6
0"!
b00000000000000000000000000000000 G
02
0"j
0*
b00000000000000000000000000000000 "M
b0000 ^
0I
b00000000000000000000000000000000 ,
0`
0X
b00000000000000000000000000000000 .
0&
b00000000000000000000000000000000 E
b00000000000000000000000000000000 =
b00000000000000000000000000000001 ".
b00000000000000000000000000000100 "b
b000000000000000000000000000000010 "
b00000000000000000000000000000010 s
0"0
b0000 "\
0"^
13
b00000000000000000000000000000000 ",
b0000 g
b00000000000000000000000000000000 R
b00000000000000000000000000000011 "u
0i
b00000000000000000000000000000000 L
07
b00000000000000000000000000000011 "o
1"Z
b00000000000000000000000000000001 "=
01
b00000000000000000000000000000011 "i
0"T
b00000000000000000000000000000000 "7
1e
1""
b00000000 ]
b00000000000000000000000000000000 H
b00000000 |
0"m
b00000000000000000000000000000011 B
b00000000000000000000000000000001 Y
b00000000000000000000000000000000 '
1x
1"-
0p
b00000000000000000000000000000001 >
b00000000000000000000000000000000 "D
b00000000000000000000000000000000 r
b00000000000000000000000000000011 U
b00000000 8
b00000000000000000000000000000000 "[
0l
0")
b00000000 "H
1n
#76
00
0"%
0"-
#81
03
b00000000000000000000000000000000 Q
b00000000000000000000000000000001 "A
b00000000000000000000000000000000 "_
1"%
1";
b00000000000000000000000000000001 "n
0"Y
0"<
0"Z
b00000000000000000000000000000000 b
b00000000000000000000000000000000 "R
1"p
10
0"S
b00000000000000000000000000000000 ">
b000000000000000000000000000000010 "q
0d
1"!
0e
0""
1{
1t
0"O
1"m
1"e
1"P
b00000000000000000000000000000000 %
b00000000000000000000000000000001 .
1"Q
0"I
b00000000000000000000000000000000 "4
0D
0"J
0x
1"-
b00000000000000000000000000000000 ".
0\
0q
0?
b00000000000000000000000000000000 "/
b00000000000000000000000000000000 "b
b000000000000000000000000000000001 "
0"E
b00000000000000000000000000000001 s
b00000000000000000000000000000010 k
0"(
0"F
b00000000000000000000000000000001 $
0"G
0m
0n
#86
00
0"%
0"-
#91
1"^
b00000000000000000000000000000011 ",
b00000000000000000000000000000001 "_
14
b1111 g
b00000000000000000000000000000011 R
b00000000000000000000000000000100 "W
1"%
b00000000000000000000000000000000 "n
17
1"'
b00000000000000000000000000000000 "=
10
1y
11
1"T
b00000000000000000000000000000011 G
b00000000000000000000000000000001 z
12
1*
b11111111 ]
b00000000000000000000000000000001 H
0{
b00000000000000000000000000000100 "M
b1111 ^
b11111111 |
0"P
1X
0"Q
1&
b00000000000000000000000000000010 Y
b00000000000000000000000000000011 '
b00000000000000000000000000000011 E
b00000000000000000000000000000100 =
1"-
1p
b00000000000000000000000000000011 >
b11111111111111111111111111111111 r
b000000000000000000000000000000010 "
b00000000000000000000000000000010 s
1"0
b11111111 8
b00000000000000000000000000000100 "[
b00000000000000000000000000000000 $
b1111 "\
1l
1")
b11111111 "H
b1111 "+
#96
00
0"%
0"-
#101
b00000000000000000000000000000100 Q
b00000000000000000000000000000000 "A
1"%
1S
0";
1i
1"Y
b00000000000000000000000000000011 L
1"<
b00000000000000000000000000000011 b
b00000000000000000000000000000100 "R
b00000000000000000000000000000001 "=
10
1"S
b00000000000000000000000000000100 ">
b000000000000000000000000000000001 "q
1"6
1d
b00000000000000000000000000000011 "7
1"j
b00000000000000000000000000000000 H
1I
0t
b00000000000000000000000000000011 ,
1"O
0"e
1`
b00000000000000000000000000000100 %
b00000000000000000000000000000000 .
b00000000000000000000000000000001 Y
1"I
b00000000000000000000000000000011 "4
1D
1"J
1"-
b00000000000000000000000000000001 ".
1\
1q
1?
b00000000000000000000000000000100 "/
b00000000000000000000000000000011 "b
b00000000000000000000000000000011 "D
1"E
b00000000000000000000000000000001 k
1"(
1"F
b00000000000000000000000000000001 $
1"G
1m
#106
00
0"%
0"-
#111
b0000 "+
b00000000000000000000000000000000 "_
04
b00000000000000000000000000000000 "W
1"%
0S
b00000000000000000000000000000001 "n
0"'
0"p
10
0y
0"6
0"!
b00000000000000000000000000000000 G
02
0"j
0*
b00000000000000000000000000000000 "M
b0000 ^
0I
b00000000000000000000000000000000 ,
0`
0X
b00000000000000000000000000000001 .
0&
b00000000000000000000000000000000 E
b00000000000000000000000000000000 =
b00000000000000000000000000000000 ".
b00000000000000000000000000000100 "b
b000000000000000000000000000000001 "
b00000000000000000000000000000001 s
0"0
b00000000000000000000000000000010 k
b0000 "\
0"^
13
b00000000000000000000000000000001 "A
b00000000000000000000000000000000 ",
b0000 g
b00000000000000000000000000000000 R
0i
b00000000000000000000000000000000 L
07
1"Z
b000000000000000000000000000000010 "q
01
0"T
b00000000000000000000000000000000 z
1e
b00000000000000000000000000000000 "7
1""
b00000000 ]
b00000000 |
1t
0"m
1"e
b00000000000000000000000000000000 '
1x
1"-
0p
b00000000000000000000000000000001 >
b00000000000000000000000000000000 "D
b00000000000000000000000000000000 r
b00000000 8
b00000000000000000000000000000000 "[
0l
0")
b00000000 "H
1n
#116
00
0"%
0"-
#121
03
b00000000000000000000000000000000 Q
b00000000000000000000000000000001 "_
1"%
1";
b00000000000000000000000000000000 "n
0"Y
b00000000000000000000000000000001 L
0"<
0"Z
b00000000000000000000000000000000 b
b00000000000000000000000000000000 "R
b00000000000000000000000000000000 "=
1"p
10
0"S
b00000000000000000000000000000000 ">
0d
1"!
b00000000000000000000000000000001 z
0e
b00000000000000000000000000000001 "7
0""
b00000000000000000000000000000001 H
1{
b00000000000000000000000000000001 ,
0"O
1"m
1"P
b00000000000000000000000000000000 %
1"Q
b00000000000000000000000000000010 Y
0"I
b00000000000000000000000000000000 "4
0D
0"J
0x
1"-
0q
0\
0?
b00000000000000000000000000000000 "/
b00000000000000000000000000000000 "b
b00000000000000000000000000000001 "D
b000000000000000000000000000000010 "
0"E
b00000000000000000000000000000010 s
0"(
0"F
b00000000000000000000000000000000 $
0"G
0m
0n
#126
00
0"%
0"-
#131
1"^
b00000000000000000000000000000000 "A
b00000000000000000000000000000011 ",
14
b1111 g
b00000000000000000000000000000011 R
b00000000000000000000000000000100 "W
1"%
b00000000000000000000000000000000 L
17
1"'
b00000000000000000000000000000001 "=
10
b000000000000000000000000000000001 "q
1y
11
1"T
b00000000000000000000000000000011 G
b00000000000000000000000000000000 "7
12
1*
b11111111 ]
b00000000000000000000000000000000 H
0{
b00000000000000000000000000000100 "M
b1111 ^
b11111111 |
0t
b00000000000000000000000000000000 ,
0"e
0"P
1X
b00000000000000000000000000000000 .
0"Q
1&
b00000000000000000000000000000001 Y
b00000000000000000000000000000011 '
b00000000000000000000000000000011 E
b00000000000000000000000000000100 =
1"-
1p
b00000000000000000000000000000011 >
b00000000000000000000000000000001 ".
b00000000000000000000000000000000 "D
b11111111111111111111111111111111 r
1"0
b11111111 8
b00000000000000000000000000000001 k
b00000000000000000000000000000100 "[
b00000000000000000000000000000001 $
b1111 "\
1l
1")
b11111111 "H
b1111 "+
#136
00
0"%
0"-
#141
b00000000000000000000000000000100 Q
b00000000000000000000000000000001 "A
b00000000000000000000000000000000 "_
1"%
1S
0";
b00000000000000000000000000000001 "n
1"Y
1i
b00000000000000000000000000000011 L
1"<
b00000000000000000000000000000011 b
b00000000000000000000000000000100 "R
10
1"S
b00000000000000000000000000000100 ">
b000000000000000000000000000000010 "q
1"6
1d
b00000000000000000000000000000000 z
b00000000000000000000000000000011 "7
1"j
1I
1t
b00000000000000000000000000000011 ,
1"O
1"e
1`
b00000000000000000000000000000100 %
b00000000000000000000000000000001 .
1"I
b00000000000000000000000000000011 "4
1D
1"J
1"-
b00000000000000000000000000000000 ".
1\
1q
1?
b00000000000000000000000000000100 "/
b00000000000000000000000000000011 "b
b00000000000000000000000000000011 "D
b000000000000000000000000000000001 "
1"E
b00000000000000000000000000000001 s
b00000000000000000000000000000010 k
1"(
1"F
1"G
1m
#146
00
0"%
0"-
#151
b0000 "+
b00000000000000000000000000000001 "_
04
b00000000000000000000000000000000 "W
1"%
0S
b00000000000000000000000000000000 "n
0"'
0"p
10
0y
0"6
0"!
b00000000000000000000000000000000 G
02
0"j
0*
b00000000000000000000000000000000 "M
b0000 ^
0I
b00000000000000000000000000000001 ,
0`
0X
0&
b00000000000000000000000000000000 E
b00000000000000000000000000000000 =
b00000000000000000000000000000100 "b
b000000000000000000000000000000010 "
b00000000000000000000000000000010 s
0"0
b00000000000000000000000000000000 $
b0000 "\
0"^
13
b00000000000000000000000000000000 ",
b0000 g
b00000000000000000000000000000000 R
0i
b00000000000000000000000000000001 L
07
1"Z
b00000000000000000000000000000000 "=
01
0"T
b00000000000000000000000000000001 z
1e
b00000000000000000000000000000001 "7
1""
b00000000 ]
b00000000000000000000000000000001 H
b00000000 |
0"m
b00000000000000000000000000000010 Y
b00000000000000000000000000000000 '
1x
1"-
0p
b00000000000000000000000000000001 >
b00000000000000000000000000000001 "D
b00000000000000000000000000000000 r
b00000000 8
b00000000000000000000000000000000 "[
0l
0")
b00000000 "H
1n
#156
00
0"%
0"-
#161
03
b00000000000000000000000000000000 Q
b00000000000000000000000000000000 "A
1"%
1";
0"Y
0"<
0"Z
b00000000000000000000000000000000 b
b00000000000000000000000000000000 "R
b00000000000000000000000000000001 "=
1"p
10
0"S
b00000000000000000000000000000000 ">
b000000000000000000000000000000001 "q
0d
1"!
0e
0""
b00000000000000000000000000000000 H
1{
0t
0"O
1"m
0"e
1"P
b00000000000000000000000000000000 %
b00000000000000000000000000000000 .
1"Q
b00000000000000000000000000000001 Y
0"I
b00000000000000000000000000000000 "4
0D
0"J
0x
1"-
b00000000000000000000000000000001 ".
0\
0q
0?
b00000000000000000000000000000000 "/
b00000000000000000000000000000000 "b
0"E
b00000000000000000000000000000001 k
0"(
0"F
b00000000000000000000000000000001 $
0"G
0m
0n
#166
00
0"%
0"-
#171
1"^
b00000000000000000000000000000001 "A
b00000000000000000000000000000011 ",
b00000000000000000000000000000000 "_
14
b1111 g
b00000000000000000000000000000011 R
b00000000000000000000000000000100 "W
1"%
b00000000000000000000000000000001 "n
b00000000000000000000000000000000 L
17
1"'
10
b000000000000000000000000000000010 "q
1y
11
1"T
b00000000000000000000000000000011 G
b00000000000000000000000000000000 z
b00000000000000000000000000000000 "7
12
1*
b11111111 ]
b00000000000000000000000000000100 "M
0{
b1111 ^
b11111111 |
1t
b00000000000000000000000000000000 ,
1"e
0"P
1X
b00000000000000000000000000000001 .
0"Q
1&
b00000000000000000000000000000011 '
b00000000000000000000000000000011 E
b00000000000000000000000000000100 =
1"-
1p
b00000000000000000000000000000011 >
b00000000000000000000000000000000 ".
b00000000000000000000000000000000 "D
b11111111111111111111111111111111 r
b000000000000000000000000000000001 "
b00000000000000000000000000000001 s
1"0
b11111111 8
b00000000000000000000000000000010 k
b00000000000000000000000000000100 "[
1l
b1111 "\
1")
b11111111 "H
b1111 "+
#176
00
0"%
0"-
#181
b00000000000000000000000000000100 Q
b00000000000000000000000000000001 "_
1"%
1S
0";
b00000000000000000000000000000000 "n
1"Y
1i
b00000000000000000000000000000011 L
1"<
b00000000000000000000000000000011 b
b00000000000000000000000000000100 "R
b00000000000000000000000000000000 "=
10
1"S
b00000000000000000000000000000100 ">
1"6
1d
b00000000000000000000000000000001 z
b00000000000000000000000000000011 "7
1"j
b00000000000000000000000000000001 H
1I
b00000000000000000000000000000011 ,
1"O
1`
b00000000000000000000000000000100 %
b00000000000000000000000000000010 Y
1"I
b00000000000000000000000000000011 "4
1D
1"J
1"-
1q
1\
1?
b00000000000000000000000000000100 "/
b00000000000000000000000000000011 "b
b00000000000000000000000000000011 "D
b000000000000000000000000000000010 "
1"E
b00000000000000000000000000000010 s
1"(
1"F
b00000000000000000000000000000000 $
1"G
1m
#186
00
0"%
0"-
