test_run_dir/Timer_Protocol_Tests/Protocol.vcd
$date
2022-03-26T12:10+0000
$end
$version
0.2
$end
$comment

$end
$timescale 1ns  $end
$scope module Protocol $end
 $var wire 1 ! io_intr_cmp $end
 $var wire 32 " _GEN_2 $end
 $var wire 1 # _T $end
 $var wire 32 $ timer_reg $end
 $var wire 32 % pre_counter $end
 $var wire 32 & _GEN_5 $end
 $var wire 1 ' io_enable $end
 $var wire 1 ( io_reset $end
 $var wire 33 ) _pre_counter_T $end
 $var wire 32 * _GEN_1 $end
 $var wire 32 + io_compare $end
 $var wire 32 , io_prescalar $end
 $var wire 1 - clock $end
 $var wire 33 . _timer_reg_T $end
 $var wire 32 / _pre_counter_T_1 $end
 $var wire 32 0 _GEN_0 $end
 $var wire 1 1 reset $end
 $var wire 32 2 _GEN_3 $end
 $var wire 32 3 _timer_reg_T_1 $end
$upscope $end
$enddefinitions $end
$dumpvars
b00000000000000000000000000000000 &
0-
0'
b00000000000000000000000000000000 /
b00000000000000000000000000000000 0
0!
b00000000000000000000000000000000 "
0(
b000000000000000000000000000000000 .
01
b00000000000000000000000000000000 *
0#
b00000000000000000000000000000000 +
b00000000000000000000000000000000 2
b00000000000000000000000000000000 ,
b00000000000000000000000000000000 $
b00000000000000000000000000000000 3
b000000000000000000000000000000000 )
b00000000000000000000000000000000 %
$end
#0
1!
b00000000000000000000000000000001 3
b00000000000000000000000000000001 0
11
b000000000000000000000000000000001 .
1#
b00000000000000000000000000000001 2
b00000000000000000000000000000001 /
b000000000000000000000000000000001 )
#1
1-
#6
0!
b00000000000000000000000000000000 0
0-
b00000000000000000000000000000001 "
01
b00000000000000000000000000000000 2
b00000000000000000000000000000001 *
1'
b00000000000000000000000000001010 +
b00000000000000000000000000000010 ,
#11
1-
b00000000000000000000000000000001 %
b00000000000000000000000000000010 "
0#
b00000000000000000000000000000010 *
b00000000000000000000000000000010 /
b000000000000000000000000000000010 )
#16
0-
#21
b00000000000000000000000000000001 0
1-
b00000000000000000000000000000010 %
b00000000000000000000000000000000 "
b00000000000000000000000000000001 &
b00000000000000000000000000000001 2
b00000000000000000000000000000000 *
b00000000000000000000000000000011 /
b000000000000000000000000000000011 )
#26
0-
#31
b00000000000000000000000000000010 3
1-
b00000000000000000000000000000000 %
b00000000000000000000000000000001 "
b000000000000000000000000000000010 .
1#
b00000000000000000000000000000001 *
b00000000000000000000000000000001 $
b00000000000000000000000000000001 /
b000000000000000000000000000000001 )
#36
0-
#41
1-
b00000000000000000000000000000001 %
b00000000000000000000000000000010 "
0#
b00000000000000000000000000000010 *
b00000000000000000000000000000010 /
b000000000000000000000000000000010 )
#46
0-
#51
b00000000000000000000000000000010 0
1-
b00000000000000000000000000000010 %
b00000000000000000000000000000000 "
b00000000000000000000000000000010 &
b00000000000000000000000000000010 2
b00000000000000000000000000000000 *
b00000000000000000000000000000011 /
b000000000000000000000000000000011 )
#56
0-
#61
b00000000000000000000000000000011 3
1-
b00000000000000000000000000000000 %
b00000000000000000000000000000001 "
b000000000000000000000000000000011 .
1#
b00000000000000000000000000000001 *
b00000000000000000000000000000010 $
b00000000000000000000000000000001 /
b000000000000000000000000000000001 )
#66
0-
#71
1-
b00000000000000000000000000000001 %
b00000000000000000000000000000010 "
0#
b00000000000000000000000000000010 *
b00000000000000000000000000000010 /
b000000000000000000000000000000010 )
#76
0-
#81
b00000000000000000000000000000011 0
1-
b00000000000000000000000000000010 %
b00000000000000000000000000000000 "
b00000000000000000000000000000011 &
b00000000000000000000000000000011 2
b00000000000000000000000000000000 *
b00000000000000000000000000000011 /
b000000000000000000000000000000011 )
#86
0-
#91
b00000000000000000000000000000100 3
1-
b00000000000000000000000000000000 %
b00000000000000000000000000000001 "
b000000000000000000000000000000100 .
1#
b00000000000000000000000000000001 *
b00000000000000000000000000000011 $
b00000000000000000000000000000001 /
b000000000000000000000000000000001 )
#96
0-
#101
1-
b00000000000000000000000000000001 %
b00000000000000000000000000000010 "
0#
b00000000000000000000000000000010 *
b00000000000000000000000000000010 /
b000000000000000000000000000000010 )
#106
0-
#111
b00000000000000000000000000000100 0
1-
b00000000000000000000000000000010 %
b00000000000000000000000000000000 "
b00000000000000000000000000000100 &
b00000000000000000000000000000100 2
b00000000000000000000000000000000 *
b00000000000000000000000000000011 /
b000000000000000000000000000000011 )
#116
0-
#121
b00000000000000000000000000000101 3
1-
b00000000000000000000000000000000 %
b00000000000000000000000000000001 "
b000000000000000000000000000000101 .
1#
b00000000000000000000000000000001 *
b00000000000000000000000000000100 $
b00000000000000000000000000000001 /
b000000000000000000000000000000001 )
#126
0-
#131
1-
b00000000000000000000000000000001 %
b00000000000000000000000000000010 "
0#
b00000000000000000000000000000010 *
b00000000000000000000000000000010 /
b000000000000000000000000000000010 )
#136
0-
#141
b00000000000000000000000000000101 0
1-
b00000000000000000000000000000010 %
b00000000000000000000000000000000 "
b00000000000000000000000000000101 &
b00000000000000000000000000000101 2
b00000000000000000000000000000000 *
b00000000000000000000000000000011 /
b000000000000000000000000000000011 )
#146
0-
#151
b00000000000000000000000000000110 3
1-
b00000000000000000000000000000000 %
b00000000000000000000000000000001 "
b000000000000000000000000000000110 .
1#
b00000000000000000000000000000001 *
b00000000000000000000000000000101 $
b00000000000000000000000000000001 /
b000000000000000000000000000000001 )
#156
0-
#161
1-
b00000000000000000000000000000001 %
b00000000000000000000000000000010 "
0#
b00000000000000000000000000000010 *
b00000000000000000000000000000010 /
b000000000000000000000000000000010 )
#166
0-
#171
b00000000000000000000000000000110 0
1-
b00000000000000000000000000000010 %
b00000000000000000000000000000000 "
b00000000000000000000000000000110 &
b00000000000000000000000000000110 2
b00000000000000000000000000000000 *
b00000000000000000000000000000011 /
b000000000000000000000000000000011 )
#176
0-
#181
b00000000000000000000000000000111 3
1-
b00000000000000000000000000000000 %
b00000000000000000000000000000001 "
b000000000000000000000000000000111 .
1#
b00000000000000000000000000000001 *
b00000000000000000000000000000110 $
b00000000000000000000000000000001 /
b000000000000000000000000000000001 )
#186
0-
#191
1-
b00000000000000000000000000000001 %
b00000000000000000000000000000010 "
0#
b00000000000000000000000000000010 *
b00000000000000000000000000000010 /
b000000000000000000000000000000010 )
#196
0-
#201
b00000000000000000000000000000111 0
1-
b00000000000000000000000000000010 %
b00000000000000000000000000000000 "
b00000000000000000000000000000111 &
b00000000000000000000000000000111 2
b00000000000000000000000000000000 *
b00000000000000000000000000000011 /
b000000000000000000000000000000011 )
#206
0-
#211
b00000000000000000000000000001000 3
1-
b00000000000000000000000000000000 %
b00000000000000000000000000000001 "
b000000000000000000000000000001000 .
1#
b00000000000000000000000000000001 *
b00000000000000000000000000000111 $
b00000000000000000000000000000001 /
b000000000000000000000000000000001 )
#216
0-
#221
1-
b00000000000000000000000000000001 %
b00000000000000000000000000000010 "
0#
b00000000000000000000000000000010 *
b00000000000000000000000000000010 /
b000000000000000000000000000000010 )
#226
0-
#231
b00000000000000000000000000001000 0
1-
b00000000000000000000000000000010 %
b00000000000000000000000000000000 "
b00000000000000000000000000001000 &
b00000000000000000000000000001000 2
b00000000000000000000000000000000 *
b00000000000000000000000000000011 /
b000000000000000000000000000000011 )
#236
0-
#241
b00000000000000000000000000001001 3
1-
b00000000000000000000000000000000 %
b00000000000000000000000000000001 "
b000000000000000000000000000001001 .
1#
b00000000000000000000000000000001 *
b00000000000000000000000000001000 $
b00000000000000000000000000000001 /
b000000000000000000000000000000001 )
#246
0-
#251
1-
b00000000000000000000000000000001 %
b00000000000000000000000000000010 "
0#
b00000000000000000000000000000010 *
b00000000000000000000000000000010 /
b000000000000000000000000000000010 )
#256
0-
#261
b00000000000000000000000000001001 0
1-
b00000000000000000000000000000010 %
b00000000000000000000000000000000 "
b00000000000000000000000000001001 &
b00000000000000000000000000001001 2
b00000000000000000000000000000000 *
b00000000000000000000000000000011 /
b000000000000000000000000000000011 )
#266
0-
#271
b00000000000000000000000000001010 3
1-
b00000000000000000000000000000000 %
b00000000000000000000000000000001 "
b000000000000000000000000000001010 .
1#
b00000000000000000000000000000001 *
b00000000000000000000000000001001 $
b00000000000000000000000000000001 /
b000000000000000000000000000000001 )
#276
0-
#281
1-
b00000000000000000000000000000001 %
b00000000000000000000000000000010 "
0#
b00000000000000000000000000000010 *
b00000000000000000000000000000010 /
b000000000000000000000000000000010 )
#286
0-
#291
b00000000000000000000000000001010 0
1-
b00000000000000000000000000000010 %
b00000000000000000000000000000000 "
b00000000000000000000000000001010 &
b00000000000000000000000000001010 2
b00000000000000000000000000000000 *
b00000000000000000000000000000011 /
b000000000000000000000000000000011 )
#296
0-
#301
1!
b00000000000000000000000000001011 3
1-
b00000000000000000000000000000000 %
b00000000000000000000000000000001 "
b000000000000000000000000000001011 .
b00000000000000000000000000000000 &
1#
b00000000000000000000000000000001 *
b00000000000000000000000000001010 $
b00000000000000000000000000000001 /
b000000000000000000000000000000001 )
#306
0-
#311
0!
b00000000000000000000000000000001 3
1-
b00000000000000000000000000000000 0
b00000000000000000000000000000001 %
b00000000000000000000000000000010 "
b000000000000000000000000000000001 .
0#
b00000000000000000000000000000000 2
b00000000000000000000000000000010 *
b00000000000000000000000000000000 $
b00000000000000000000000000000010 /
b000000000000000000000000000000010 )
#316
0-
#321
b00000000000000000000000000000001 0
1-
b00000000000000000000000000000010 %
b00000000000000000000000000000000 "
b00000000000000000000000000000001 &
b00000000000000000000000000000001 2
b00000000000000000000000000000000 *
b00000000000000000000000000000011 /
b000000000000000000000000000000011 )
#326
0-
#331
b00000000000000000000000000000010 3
1-
b00000000000000000000000000000000 %
b00000000000000000000000000000001 "
b000000000000000000000000000000010 .
1#
b00000000000000000000000000000001 *
b00000000000000000000000000000001 $
b00000000000000000000000000000001 /
b000000000000000000000000000000001 )
#336
0-
#341
1-
b00000000000000000000000000000001 %
b00000000000000000000000000000010 "
0#
b00000000000000000000000000000010 *
b00000000000000000000000000000010 /
b000000000000000000000000000000010 )
#346
0-
#351
b00000000000000000000000000000010 0
1-
b00000000000000000000000000000010 %
b00000000000000000000000000000000 "
b00000000000000000000000000000010 &
b00000000000000000000000000000010 2
b00000000000000000000000000000000 *
b00000000000000000000000000000011 /
b000000000000000000000000000000011 )
#356
0-
#361
b00000000000000000000000000000011 3
1-
b00000000000000000000000000000000 %
b00000000000000000000000000000001 "
b000000000000000000000000000000011 .
1#
b00000000000000000000000000000001 *
b00000000000000000000000000000010 $
b00000000000000000000000000000001 /
b000000000000000000000000000000001 )
#366
0-
#371
1-
b00000000000000000000000000000001 %
b00000000000000000000000000000010 "
0#
b00000000000000000000000000000010 *
b00000000000000000000000000000010 /
b000000000000000000000000000000010 )
#376
0-
#381
b00000000000000000000000000000011 0
1-
b00000000000000000000000000000010 %
b00000000000000000000000000000000 "
b00000000000000000000000000000011 &
b00000000000000000000000000000011 2
b00000000000000000000000000000000 *
b00000000000000000000000000000011 /
b000000000000000000000000000000011 )
#386
0-
#391
b00000000000000000000000000000100 3
1-
b00000000000000000000000000000000 %
b00000000000000000000000000000001 "
b000000000000000000000000000000100 .
1#
b00000000000000000000000000000001 *
b00000000000000000000000000000011 $
b00000000000000000000000000000001 /
b000000000000000000000000000000001 )
#396
0-
#401
1-
b00000000000000000000000000000001 %
b00000000000000000000000000000010 "
0#
b00000000000000000000000000000010 *
b00000000000000000000000000000010 /
b000000000000000000000000000000010 )
#406
0-
#411
b00000000000000000000000000000100 0
1-
b00000000000000000000000000000010 %
b00000000000000000000000000000000 "
b00000000000000000000000000000100 &
b00000000000000000000000000000100 2
b00000000000000000000000000000000 *
b00000000000000000000000000000011 /
b000000000000000000000000000000011 )
#416
0-
#421
b00000000000000000000000000000101 3
1-
b00000000000000000000000000000000 %
b00000000000000000000000000000001 "
b000000000000000000000000000000101 .
1#
b00000000000000000000000000000001 *
b00000000000000000000000000000100 $
b00000000000000000000000000000001 /
b000000000000000000000000000000001 )
#426
0-
#431
1-
b00000000000000000000000000000001 %
b00000000000000000000000000000010 "
0#
b00000000000000000000000000000010 *
b00000000000000000000000000000010 /
b000000000000000000000000000000010 )
#436
0-
#441
b00000000000000000000000000000101 0
1-
b00000000000000000000000000000010 %
b00000000000000000000000000000000 "
b00000000000000000000000000000101 &
b00000000000000000000000000000101 2
b00000000000000000000000000000000 *
b00000000000000000000000000000011 /
b000000000000000000000000000000011 )
#446
0-
#451
b00000000000000000000000000000110 3
1-
b00000000000000000000000000000000 %
b00000000000000000000000000000001 "
b000000000000000000000000000000110 .
1#
b00000000000000000000000000000001 *
b00000000000000000000000000000101 $
b00000000000000000000000000000001 /
b000000000000000000000000000000001 )
#456
0-
#461
1-
b00000000000000000000000000000001 %
b00000000000000000000000000000010 "
0#
b00000000000000000000000000000010 *
b00000000000000000000000000000010 /
b000000000000000000000000000000010 )
#466
0-
#471
b00000000000000000000000000000110 0
1-
b00000000000000000000000000000010 %
b00000000000000000000000000000000 "
b00000000000000000000000000000110 &
b00000000000000000000000000000110 2
b00000000000000000000000000000000 *
b00000000000000000000000000000011 /
b000000000000000000000000000000011 )
#476
0-
#481
b00000000000000000000000000000111 3
1-
b00000000000000000000000000000000 %
b00000000000000000000000000000001 "
b000000000000000000000000000000111 .
1#
b00000000000000000000000000000001 *
b00000000000000000000000000000110 $
b00000000000000000000000000000001 /
b000000000000000000000000000000001 )
#486
0-
#491
1-
b00000000000000000000000000000001 %
b00000000000000000000000000000010 "
0#
b00000000000000000000000000000010 *
b00000000000000000000000000000010 /
b000000000000000000000000000000010 )
#496
0-
#501
b00000000000000000000000000000111 0
1-
b00000000000000000000000000000010 %
b00000000000000000000000000000000 "
b00000000000000000000000000000111 &
b00000000000000000000000000000111 2
b00000000000000000000000000000000 *
b00000000000000000000000000000011 /
b000000000000000000000000000000011 )
#506
0-
#511
b00000000000000000000000000001000 3
1-
b00000000000000000000000000000000 %
b00000000000000000000000000000001 "
b000000000000000000000000000001000 .
1#
b00000000000000000000000000000001 *
b00000000000000000000000000000111 $
b00000000000000000000000000000001 /
b000000000000000000000000000000001 )
#516
0-
#521
1-
b00000000000000000000000000000001 %
b00000000000000000000000000000010 "
0#
b00000000000000000000000000000010 *
b00000000000000000000000000000010 /
b000000000000000000000000000000010 )
#526
0-
#531
b00000000000000000000000000001000 0
1-
b00000000000000000000000000000010 %
b00000000000000000000000000000000 "
b00000000000000000000000000001000 &
b00000000000000000000000000001000 2
b00000000000000000000000000000000 *
b00000000000000000000000000000011 /
b000000000000000000000000000000011 )
#536
0-
#541
b00000000000000000000000000001001 3
1-
b00000000000000000000000000000000 %
b00000000000000000000000000000001 "
b000000000000000000000000000001001 .
1#
b00000000000000000000000000000001 *
b00000000000000000000000000001000 $
b00000000000000000000000000000001 /
b000000000000000000000000000000001 )
#546
0-
#551
1-
b00000000000000000000000000000001 %
b00000000000000000000000000000010 "
0#
b00000000000000000000000000000010 *
b00000000000000000000000000000010 /
b000000000000000000000000000000010 )
#556
0-
#561
b00000000000000000000000000001001 0
1-
b00000000000000000000000000000010 %
b00000000000000000000000000000000 "
b00000000000000000000000000001001 &
b00000000000000000000000000001001 2
b00000000000000000000000000000000 *
b00000000000000000000000000000011 /
b000000000000000000000000000000011 )
#566
0-
#571
b00000000000000000000000000001010 3
1-
b00000000000000000000000000000000 %
b00000000000000000000000000000001 "
b000000000000000000000000000001010 .
1#
b00000000000000000000000000000001 *
b00000000000000000000000000001001 $
b00000000000000000000000000000001 /
b000000000000000000000000000000001 )
#576
0-
#581
1-
b00000000000000000000000000000001 %
b00000000000000000000000000000010 "
0#
b00000000000000000000000000000010 *
b00000000000000000000000000000010 /
b000000000000000000000000000000010 )
#586
0-
#591
b00000000000000000000000000001010 0
1-
b00000000000000000000000000000010 %
b00000000000000000000000000000000 "
b00000000000000000000000000001010 &
b00000000000000000000000000001010 2
b00000000000000000000000000000000 *
b00000000000000000000000000000011 /
b000000000000000000000000000000011 )
#596
0-
#601
1!
b00000000000000000000000000001011 3
1-
b00000000000000000000000000000000 %
b00000000000000000000000000000001 "
b000000000000000000000000000001011 .
b00000000000000000000000000000000 &
1#
b00000000000000000000000000000001 *
b00000000000000000000000000001010 $
b00000000000000000000000000000001 /
b000000000000000000000000000000001 )
#606
0-
#611
0!
b00000000000000000000000000000001 3
1-
b00000000000000000000000000000000 0
b00000000000000000000000000000001 %
b00000000000000000000000000000010 "
b000000000000000000000000000000001 .
0#
b00000000000000000000000000000000 2
b00000000000000000000000000000010 *
b00000000000000000000000000000000 $
b00000000000000000000000000000010 /
b000000000000000000000000000000010 )
#616
0-
#621
b00000000000000000000000000000001 0
1-
b00000000000000000000000000000010 %
b00000000000000000000000000000000 "
b00000000000000000000000000000001 &
b00000000000000000000000000000001 2
b00000000000000000000000000000000 *
b00000000000000000000000000000011 /
b000000000000000000000000000000011 )
#626
0-
#631
b00000000000000000000000000000010 3
1-
b00000000000000000000000000000000 %
b00000000000000000000000000000001 "
b000000000000000000000000000000010 .
1#
b00000000000000000000000000000001 *
b00000000000000000000000000000001 $
b00000000000000000000000000000001 /
b000000000000000000000000000000001 )
#636
0-
#641
1-
b00000000000000000000000000000001 %
b00000000000000000000000000000010 "
0#
b00000000000000000000000000000010 *
b00000000000000000000000000000010 /
b000000000000000000000000000000010 )
#646
0-
#651
b00000000000000000000000000000010 0
1-
b00000000000000000000000000000010 %
b00000000000000000000000000000000 "
b00000000000000000000000000000010 &
b00000000000000000000000000000010 2
b00000000000000000000000000000000 *
b00000000000000000000000000000011 /
b000000000000000000000000000000011 )
#656
0-
#661
b00000000000000000000000000000011 3
1-
b00000000000000000000000000000000 %
b00000000000000000000000000000001 "
b000000000000000000000000000000011 .
1#
b00000000000000000000000000000001 *
b00000000000000000000000000000010 $
b00000000000000000000000000000001 /
b000000000000000000000000000000001 )
#666
0-
#671
1-
b00000000000000000000000000000001 %
b00000000000000000000000000000010 "
0#
b00000000000000000000000000000010 *
b00000000000000000000000000000010 /
b000000000000000000000000000000010 )
#676
0-
#681
b00000000000000000000000000000011 0
1-
b00000000000000000000000000000010 %
b00000000000000000000000000000000 "
b00000000000000000000000000000011 &
b00000000000000000000000000000011 2
b00000000000000000000000000000000 *
b00000000000000000000000000000011 /
b000000000000000000000000000000011 )
#686
0-
#691
b00000000000000000000000000000100 3
1-
b00000000000000000000000000000000 %
b00000000000000000000000000000001 "
b000000000000000000000000000000100 .
1#
b00000000000000000000000000000001 *
b00000000000000000000000000000011 $
b00000000000000000000000000000001 /
b000000000000000000000000000000001 )
#696
0-
#701
1-
b00000000000000000000000000000001 %
b00000000000000000000000000000010 "
0#
b00000000000000000000000000000010 *
b00000000000000000000000000000010 /
b000000000000000000000000000000010 )
#706
0-
#711
b00000000000000000000000000000100 0
1-
b00000000000000000000000000000010 %
b00000000000000000000000000000000 "
b00000000000000000000000000000100 &
b00000000000000000000000000000100 2
b00000000000000000000000000000000 *
b00000000000000000000000000000011 /
b000000000000000000000000000000011 )
#716
0-
#721
b00000000000000000000000000000101 3
1-
b00000000000000000000000000000000 %
b00000000000000000000000000000001 "
b000000000000000000000000000000101 .
1#
b00000000000000000000000000000001 *
b00000000000000000000000000000100 $
b00000000000000000000000000000001 /
b000000000000000000000000000000001 )
#726
0-
#731
1-
b00000000000000000000000000000001 %
b00000000000000000000000000000010 "
0#
b00000000000000000000000000000010 *
b00000000000000000000000000000010 /
b000000000000000000000000000000010 )
#736
0-
#741
b00000000000000000000000000000101 0
1-
b00000000000000000000000000000010 %
b00000000000000000000000000000000 "
b00000000000000000000000000000101 &
b00000000000000000000000000000101 2
b00000000000000000000000000000000 *
b00000000000000000000000000000011 /
b000000000000000000000000000000011 )
#746
0-
#751
b00000000000000000000000000000110 3
1-
b00000000000000000000000000000000 %
b00000000000000000000000000000001 "
b000000000000000000000000000000110 .
1#
b00000000000000000000000000000001 *
b00000000000000000000000000000101 $
b00000000000000000000000000000001 /
b000000000000000000000000000000001 )
#756
0-
#761
1-
b00000000000000000000000000000001 %
b00000000000000000000000000000010 "
0#
b00000000000000000000000000000010 *
b00000000000000000000000000000010 /
b000000000000000000000000000000010 )
#766
0-
#771
b00000000000000000000000000000110 0
1-
b00000000000000000000000000000010 %
b00000000000000000000000000000000 "
b00000000000000000000000000000110 &
b00000000000000000000000000000110 2
b00000000000000000000000000000000 *
b00000000000000000000000000000011 /
b000000000000000000000000000000011 )
#776
0-
#781
b00000000000000000000000000000111 3
1-
b00000000000000000000000000000000 %
b00000000000000000000000000000001 "
b000000000000000000000000000000111 .
1#
b00000000000000000000000000000001 *
b00000000000000000000000000000110 $
b00000000000000000000000000000001 /
b000000000000000000000000000000001 )
#786
0-
#791
1-
b00000000000000000000000000000001 %
b00000000000000000000000000000010 "
0#
b00000000000000000000000000000010 *
b00000000000000000000000000000010 /
b000000000000000000000000000000010 )
#796
0-
#801
b00000000000000000000000000000111 0
1-
b00000000000000000000000000000010 %
b00000000000000000000000000000000 "
b00000000000000000000000000000111 &
b00000000000000000000000000000111 2
b00000000000000000000000000000000 *
b00000000000000000000000000000011 /
b000000000000000000000000000000011 )
#806
0-
#811
b00000000000000000000000000001000 3
1-
b00000000000000000000000000000000 %
b00000000000000000000000000000001 "
b000000000000000000000000000001000 .
1#
b00000000000000000000000000000001 *
b00000000000000000000000000000111 $
b00000000000000000000000000000001 /
b000000000000000000000000000000001 )
#816
0-
#821
1-
b00000000000000000000000000000001 %
b00000000000000000000000000000010 "
0#
b00000000000000000000000000000010 *
b00000000000000000000000000000010 /
b000000000000000000000000000000010 )
#826
0-
#831
b00000000000000000000000000001000 0
1-
b00000000000000000000000000000010 %
b00000000000000000000000000000000 "
b00000000000000000000000000001000 &
b00000000000000000000000000001000 2
b00000000000000000000000000000000 *
b00000000000000000000000000000011 /
b000000000000000000000000000000011 )
#836
0-
#841
b00000000000000000000000000001001 3
1-
b00000000000000000000000000000000 %
b00000000000000000000000000000001 "
b000000000000000000000000000001001 .
1#
b00000000000000000000000000000001 *
b00000000000000000000000000001000 $
b00000000000000000000000000000001 /
b000000000000000000000000000000001 )
#846
0-
#851
1-
b00000000000000000000000000000001 %
b00000000000000000000000000000010 "
0#
b00000000000000000000000000000010 *
b00000000000000000000000000000010 /
b000000000000000000000000000000010 )
#856
0-
#861
b00000000000000000000000000001001 0
1-
b00000000000000000000000000000010 %
b00000000000000000000000000000000 "
b00000000000000000000000000001001 &
b00000000000000000000000000001001 2
b00000000000000000000000000000000 *
b00000000000000000000000000000011 /
b000000000000000000000000000000011 )
#866
0-
#871
b00000000000000000000000000001010 3
1-
b00000000000000000000000000000000 %
b00000000000000000000000000000001 "
b000000000000000000000000000001010 .
1#
b00000000000000000000000000000001 *
b00000000000000000000000000001001 $
b00000000000000000000000000000001 /
b000000000000000000000000000000001 )
#876
0-
#881
1-
b00000000000000000000000000000001 %
b00000000000000000000000000000010 "
0#
b00000000000000000000000000000010 *
b00000000000000000000000000000010 /
b000000000000000000000000000000010 )
#886
0-
#891
b00000000000000000000000000001010 0
1-
b00000000000000000000000000000010 %
b00000000000000000000000000000000 "
b00000000000000000000000000001010 &
b00000000000000000000000000001010 2
b00000000000000000000000000000000 *
b00000000000000000000000000000011 /
b000000000000000000000000000000011 )
#896
0-
#901
1!
b00000000000000000000000000001011 3
1-
b00000000000000000000000000000000 %
b00000000000000000000000000000001 "
b000000000000000000000000000001011 .
b00000000000000000000000000000000 &
1#
b00000000000000000000000000000001 *
b00000000000000000000000000001010 $
b00000000000000000000000000000001 /
b000000000000000000000000000000001 )
#906
0-
#911
0!
b00000000000000000000000000000001 3
1-
b00000000000000000000000000000000 0
b00000000000000000000000000000001 %
b00000000000000000000000000000010 "
b000000000000000000000000000000001 .
0#
b00000000000000000000000000000000 2
b00000000000000000000000000000010 *
b00000000000000000000000000000000 $
b00000000000000000000000000000010 /
b000000000000000000000000000000010 )
#916
0-
#921
b00000000000000000000000000000001 0
1-
b00000000000000000000000000000010 %
b00000000000000000000000000000000 "
b00000000000000000000000000000001 &
b00000000000000000000000000000001 2
b00000000000000000000000000000000 *
b00000000000000000000000000000011 /
b000000000000000000000000000000011 )
#926
0-
#931
b00000000000000000000000000000010 3
1-
b00000000000000000000000000000000 %
b00000000000000000000000000000001 "
b000000000000000000000000000000010 .
1#
b00000000000000000000000000000001 *
b00000000000000000000000000000001 $
b00000000000000000000000000000001 /
b000000000000000000000000000000001 )
#936
0-
#941
1-
b00000000000000000000000000000001 %
b00000000000000000000000000000010 "
0#
b00000000000000000000000000000010 *
b00000000000000000000000000000010 /
b000000000000000000000000000000010 )
#946
0-
#951
b00000000000000000000000000000010 0
1-
b00000000000000000000000000000010 %
b00000000000000000000000000000000 "
b00000000000000000000000000000010 &
b00000000000000000000000000000010 2
b00000000000000000000000000000000 *
b00000000000000000000000000000011 /
b000000000000000000000000000000011 )
#956
0-
#961
b00000000000000000000000000000011 3
1-
b00000000000000000000000000000000 %
b00000000000000000000000000000001 "
b000000000000000000000000000000011 .
1#
b00000000000000000000000000000001 *
b00000000000000000000000000000010 $
b00000000000000000000000000000001 /
b000000000000000000000000000000001 )
#966
0-
#971
1-
b00000000000000000000000000000001 %
b00000000000000000000000000000010 "
0#
b00000000000000000000000000000010 *
b00000000000000000000000000000010 /
b000000000000000000000000000000010 )
#976
0-
#981
b00000000000000000000000000000011 0
1-
b00000000000000000000000000000010 %
b00000000000000000000000000000000 "
b00000000000000000000000000000011 &
b00000000000000000000000000000011 2
b00000000000000000000000000000000 *
b00000000000000000000000000000011 /
b000000000000000000000000000000011 )
#986
0-
#991
b00000000000000000000000000000100 3
1-
b00000000000000000000000000000000 %
b00000000000000000000000000000001 "
b000000000000000000000000000000100 .
1#
b00000000000000000000000000000001 *
b00000000000000000000000000000011 $
b00000000000000000000000000000001 /
b000000000000000000000000000000001 )
#996
0-
#1001
1-
b00000000000000000000000000000001 %
b00000000000000000000000000000010 "
0#
b00000000000000000000000000000010 *
b00000000000000000000000000000010 /
b000000000000000000000000000000010 )
#1006
0-
0'
b00000000000000000000000000000000 +
b00000000000000000000000000000000 ,
#1011
1-
b00000000000000000000000000000010 %
b00000000000000000000000000000011 "
b00000000000000000000000000000011 *
b00000000000000000000000000000011 /
b000000000000000000000000000000011 )
